节点ID,节点名称,是否启用,服务端控制ID,界面类型,父级节点,访问深度,同级排序,节点属性,默认开关,关闭方式,功能列表,icon名称,介绍文件名
id:int,name:string,active:int,funcId:int,entryType:int,father:int,layer:int,setSort:int,nodeProp:json:array:int,defSwitch:int,switchMode:int,funcList:int,iconName:string,introFile:string
1,主菜单,1,,0,0,1,,,1,1,1,,
2,游戏大厅,1,,5,1,1,1,,1,1,1,,
3,切换平台,1,,5,1,1,2,,1,1,1,,
4,充值中心,1,,5,1,1,3,,1,1,1,,
5,快捷支付,1,32,6,4,1,1,,1,1,1,,
6,支付宝,1,26,6,4,1,2,,1,1,1,,
7,网银支付,1,28,6,4,1,3,,1,1,1,,
8,微信支付,1,27,6,4,1,4,,1,1,1,,
9,神州行卡,1,29,6,4,1,5,,1,1,1,,
10,电信卡充值,1,31,6,4,1,6,,1,1,1,,
11,联通卡充值,1,30,6,4,1,7,,1,1,1,,
12,游戏一卡通,1,33,6,4,1,8,,1,1,1,,
14,快捷扫码支付,1,,6,4,1,,,1,1,1,,
16,游戏商城,1,,5,1,1,4,,1,1,1,,
17,A币专区,1,24,0,16,1,1,,1,1,1,,
18,功能道具,1,24,0,16,1,2,,1,1,1,,
19,礼品乐园,1,23,5,1,1,5,,1,1,1,,
20,家用电器,1,,7,19,1,1,,1,1,1,,
21,手机数码,1,,7,19,1,2,,1,1,1,,
22,图书影像,1,,7,19,1,3,,1,1,1,,
23,母婴用品,1,,7,19,1,4,,1,1,1,,
24,食品饮料,1,,7,19,1,5,,1,1,1,,
25,家居家装,1,,7,19,1,6,,1,1,1,,
26,休闲玩具,1,,7,19,1,7,,1,1,1,,
27,时尚服饰,1,,7,19,1,8,,1,1,1,,
28,锁定本机,1,34,0,0,1,,,1,1,1,,
29,点击认证,1,,0,0,1,,,1,1,1,,
30,更换头像,1,11,0,0,1,,,1,1,1,,
31,个人中心菜单,1,,0,0,1,,,1,1,1,,
32,背包,1,,0,31,1,1,,1,1,1,,
33,合成,1,1,0,32,1,,,1,1,1,,
34,兑换,1,,0,32,1,,,1,1,1,,
35,兑换话费,1,2,0,34,1,,,1,1,1,,
36,兑换流量,1,3,0,34,1,,,1,1,1,,
37,兑换现金,1,4,0,34,1,,,1,1,1,,
38,兑换实物,1,5,0,34,1,,,1,1,1,,
39,领奖中心,1,,0,32,1,3,,1,1,1,,
40,银行,1,38,0,31,1,2,,1,1,1,,
41,任务,1,,0,31,1,3,,1,1,1,,
42,活动,1,,0,31,1,4,,1,1,1,,
45,东山再起,1,8,0,42,1,1,,1,1,1,,
48,邮件,1,22,0,31,1,5,,1,1,1,,
49,设置,1,,0,31,1,6,,1,1,1,,
50,修改头像,1,11,0,49,1,,,1,1,1,,
51,修改昵称,1,12,0,49,1,,,1,1,1,,
52,绑定手机,1,13,0,49,1,1,,1,1,1,,
53,绑定身份证,1,14,0,49,1,2,,1,1,1,,
54,修改银行密码,1,16,0,49,1,3,,1,1,1,,
55,修改登录密码,1,15,0,49,1,4,,1,1,1,,
56,大厅右上角,1,,0,0,1,,,1,1,1,,
57,官方网站,1,,10,56,1,1,,1,1,1,,
58,截图,1,,10,56,1,5,,1,1,1,,
60,上广告栏,1,,8,0,1,,,1,1,1,,
61,游戏咨询,1,,0,0,1,,,1,1,1,,
62,在线客服,1,,0,0,1,,,1,1,1,,
63,活动公告(含走马灯）,1,21,0,0,1,,,1,1,1,,
64,热门游戏,1,,0,0,1,,,1,1,1,,
65,热门游戏1,1,,0,64,1,1,,1,1,1,,
66,热门游戏2,1,,0,64,1,2,,1,1,1,,
67,热门游戏3,1,,0,64,1,3,,1,1,1,,
68,右下角广告栏,1,,9,0,1,,,1,1,1,,
69,退出时切换账号,1,,0,0,1,,,1,1,1,,
70,分享赚话费,1,,0,0,1,,,1,1,1,,
71,领取礼包,1,35,0,34,1,,,1,1,1,,
2100,捕鱼公测活动,1,,0,0,1,,,1,1,1,fish_btn_activity.png,
3100,德州幸运转盘,1,,0,0,1,,,1,1,1,dz_btn_luckyicon.png,
100000,斗地主,0,,1,0,1,1,[1],1,1,2,landlords,classical_lord
110000,经典斗地主,1,,1,0,2,1,[1],1,1,2,dt_btn_classiclord,classical_lord
110100,经典斗地主匹配房（自由）,1,,3,110000,1,1,,1,1,2,,
110101,经典斗地-新手房（500金币入场）,1,101101,4,110100,1,1,[1],1,1,2,,
110102,经典斗地-初级房（1万金币入场）,1,101102,4,110100,1,2,[1],1,1,2,,
110103,经典斗地-中级房（5万金币入场）,1,101103,4,110100,1,3,[1],1,1,2,,
110104,经典斗地-高级房（25万金币入场）,1,101104,4,110100,1,4,[1],1,1,2,,
110105,经典斗地-专家场（50万金币入场）,1,101105,4,110100,1,5,[1],1,1,2,,
110106,经典斗地-大师场（100万金币入场）,1,101106,4,110100,1,6,[1],1,1,2,,
110107,经典斗地主-草根挑战场（2万金币入场）,1,101107,4,110100,1,7,[1],1,1,2,,
110108,经典斗地主-精英挑战场（10万金币入场）,1,101108,4,110100,1,8,[1],1,1,2,,
110109,经典斗地主-明星挑战场（50万金币入场）,1,101109,4,110100,1,9,[1],1,1,2,,
110200,经典斗地主超快比赛房,1,,3,110000,1,2,,1,1,2,,
110201,经典斗地-1元话费超快赛（免费）,1,101021,4,110200,1,1,[1],1,1,2,,
110202,经典斗地-5元话费超快赛（免费）,1,101022,4,110200,1,2,[1],1,1,2,,
110203,经典斗地-3元话费超快赛（3千金币报名）,1,101023,4,110200,1,3,[1],1,1,2,,
110204,经典斗地-10元话费超快赛（1万金币报名）,1,101024,4,110200,1,4,[1],1,1,2,,
110205,经典斗地-50000钻石超快赛（3万金币报名）,1,101025,4,110200,1,5,[1],1,1,2,,
110206,经典斗地-100元话费超快赛（10万金币报名）,1,101026,4,110200,1,6,[1],1,1,2,,
110300,经典斗地主定点比赛房,1,,3,110000,1,3,,1,1,2,,
110301,经典斗地-20元话费定点赛（免费）,1,101201,4,110300,1,4,[1],1,1,2,,
110302,经典斗地-50元话费定点赛（免费）,1,101202,4,110300,1,5,[1],1,1,2,,
110303,经典斗地-80元话费定点赛（免费）,1,101203,4,110300,1,6,[1],1,1,2,,
110304,经典斗地-100元话费定点赛（免费）,1,101204,4,110300,1,7,[1],1,1,2,,
110305,经典斗地-2万钻石定点赛（免费）,1,101205,4,110300,1,8,[1],1,1,2,,
110306,经典斗地-5万钻石定点赛（免费）,1,101206,4,110300,1,9,[1],1,1,2,,
110307,经典斗地-8万钻石定点赛（免费）,1,101207,4,110300,1,10,[1],1,1,2,,
110308,经典斗地-10万钻石定点赛（免费）,1,101208,4,110300,1,11,[1],1,1,2,,
110309,经典斗地-精英话费赛（1万金币报名）,1,101209,4,110300,1,12,[1],1,1,2,,
110310,华为手机大奖赛（免费）,1,101210,4,110300,1,1,[1],1,1,2,,
110311,iPhoneX大奖赛（免费）,1,101211,4,110300,1,2,[1],1,1,2,,
120000,欢乐斗地主,1,,1,0,2,2,[1],1,1,2,dt_btn_happylord,joy_lord
120100,欢乐斗地主匹配房（自由）,1,,3,120000,1,1,,1,1,2,,
120101,欢乐斗地主-新手房（500金币入场）,1,102101,4,120100,1,1,[1],1,1,2,,
120102,欢乐斗地主-初级房（1万金币入场）,1,102102,4,120100,1,2,[1],1,1,2,,
120103,欢乐斗地主-中级房（5万金币入场）,1,102103,4,120100,1,3,[1],1,1,2,,
120104,欢乐斗地主-高级房（25万金币入场）,1,102104,4,120100,1,4,[1],1,1,2,,
120105,欢乐斗地主-专家场（50万金币入场）,1,102105,4,120100,1,5,[1],1,1,2,,
120106,欢乐斗地主-大师场（100万金币入场）,1,102106,4,120100,1,6,[1],1,1,2,,
120107,欢乐斗地主-草根挑战场（2万金币入场）,1,102107,4,120100,1,7,[1],1,1,2,,
120108,欢乐斗地主-精英挑战场（10万金币入场）,1,102108,4,120100,1,8,[1],1,1,2,,
120109,欢乐斗地主-明星挑战场（50万金币入场）,1,102109,4,120100,1,9,[1],1,1,2,,
120200,欢乐斗地主超快比赛房,1,,3,120000,1,2,,1,1,2,,
120201,欢乐斗地主-1元话费超快赛（免费）,1,102021,4,120200,1,1,[1],1,1,2,,
120202,欢乐斗地主-5元话费超快赛（免费）,1,102022,4,120200,1,2,[1],1,1,2,,
120203,欢乐斗地主-3元话费超快赛（3千金币报名）,1,102023,4,120200,1,3,[1],1,1,2,,
120204,欢乐斗地主-10元话费超快赛（1万金币报名）,1,102024,4,120200,1,4,[1],1,1,2,,
120205,欢乐斗地主-50000钻石超快赛（3万金币报名）,1,102025,4,120200,1,5,[1],1,1,2,,
120206,欢乐斗地主-100元话费超快赛（10万金币报名）,1,102026,4,120200,1,6,[1],1,1,2,,
120300,欢乐斗地主定点比赛房,1,,3,120000,1,3,,1,1,2,,
120301,欢乐斗地主-30元话费定点赛（免费）,1,102201,4,120300,1,1,[1],1,1,2,,
120302,欢乐斗地主-60元话费定点赛（免费）,1,102202,4,120300,1,2,[1],1,1,2,,
120303,欢乐斗地主-100元话费定点赛（免费）,1,102203,4,120300,1,3,[1],1,1,2,,
120304,欢乐斗地主-3万钻石定点赛（免费）,1,102204,4,120300,1,4,[1],1,1,2,,
120305,欢乐斗地主-6万钻石定点赛（免费）,1,102205,4,120300,1,5,[1],1,1,2,,
120306,欢乐斗地主-10万钻石定点赛（免费）,1,102206,4,120300,1,6,[1],1,1,2,,
130000,癞子斗地主,1,,2,0,2,3,[1],0,1,2,shameless_lord,shameless_lord
130100,癞子斗地主匹配房（自由）,1,,3,130000,1,1,,1,1,2,,
130101,癞子斗地-新手房（500金币入场）,1,103101,4,130100,1,1,[1],1,1,2,,
130102,癞子斗地-初级房（1万金币入场）,1,103102,4,130100,1,2,[1],1,1,2,,
130103,癞子斗地-中级房（5万金币入场）,1,103103,4,130100,1,3,[1],1,1,2,,
130104,癞子斗地-高级房（25万金币入场）,1,103104,4,130100,1,4,[1],1,1,2,,
130105,癞子斗地-专家场（50万金币入场）,1,103105,4,130100,1,5,[1],1,1,2,,
130106,癞子斗地-大师场（100万金币入场）,1,103106,4,130100,1,6,[1],1,1,2,,
130107,癞子斗地主-草根挑战场（2万金币入场）,1,103107,4,130100,1,7,[1],1,1,2,,
130108,癞子斗地主-精英挑战场（10万金币入场）,1,103108,4,130100,1,8,[1],1,1,2,,
130109,癞子斗地主-明星挑战场（50万金币入场）,1,103109,4,130100,1,9,[1],1,1,2,,
130200,癞子斗地主超快比赛房,1,,3,130000,1,2,,1,1,2,,
130201,癞子斗地-1元话费超快赛（免费）,1,103021,4,130200,1,1,[1],1,1,2,,
130202,癞子斗地-5元话费超快赛（免费）,1,103022,4,130200,1,2,[1],1,1,2,,
130203,癞子斗地-3元话费超快赛（3千金币报名）,1,103023,4,130200,1,3,[1],1,1,2,,
130204,癞子斗地-10元话费超快赛（1万金币报名）,1,103024,4,130200,1,4,[1],1,1,2,,
130205,癞子斗地-50000钻石超快赛（3万金币报名）,1,103025,4,130200,1,5,[1],1,1,2,,
130206,癞子斗地-100元话费超快赛（10万金币报名）,1,103026,4,130200,1,6,[1],1,1,2,,
130300,癞子斗地主定点比赛房,1,,3,130000,1,3,,1,1,2,,
130301,癞子斗地-20元话费定点赛（免费）,1,103201,4,130300,1,4,[1],1,1,2,,
130302,癞子斗地-50元话费定点赛（免费）,1,103202,4,130300,1,5,[1],1,1,2,,
130303,癞子斗地-80元话费定点赛（免费）,1,103203,4,130300,1,6,[1],1,1,2,,
130304,癞子斗地-100元话费定点赛（免费）,1,103204,4,130300,1,7,[1],1,1,2,,
130305,癞子斗地-2万钻石定点赛（免费）,1,103205,4,130300,1,8,[1],1,1,2,,
130306,癞子斗地-5万钻石定点赛（免费）,1,103206,4,130300,1,9,[1],1,1,2,,
130307,癞子斗地-8万钻石定点赛（免费）,1,103207,4,130300,1,10,[1],1,1,2,,
130308,癞子斗地-10万钻石定点赛（免费）,1,103208,4,130300,1,11,[1],1,1,2,,
130309,癞子斗地-精英话费赛（1万金币报名）,1,103209,4,130300,1,12,[1],1,1,2,,
20001,捕鱼大决战,1,,1,0,2,3,[1],1,1,2,dt_btn_fish,fishing
20101,捕鱼大决战匹配房,1,,3,20001,1,1,,1,1,2,,
20111,新手港湾(炮台倍数1-50倍),1,106001,4,20101,1,1,[1],1,1,2,,
20112,深海巨鲨(炮台倍数50-500倍),1,106002,4,20101,1,2,[1],1,1,2,,
20113,龙宫宝藏（炮台倍数500倍及以上),1,106003,4,20101,1,3,[1],1,1,2,,
20114,神龟海域(炮台倍数80倍及以上),1,106004,4,20101,1,4,[1],1,1,2,,
30001,德州扑克,1,,1,0,2,4,[1],1,1,2,dt_btn_dzpk,texas_holdem
310000,德州扑克自由房,1,,3,30001,1,1,,1,1,2,,
310100,德州扑克自由房100金币,1,109001,4,310000,1,1,[1],1,1,2,,
310101,德州扑克自由房10000金币,1,109002,4,310000,1,2,[1],1,1,2,,
310102,德州扑克自由房100000金币,1,109003,4,310000,1,3,[1],1,1,2,,
310103,德州扑克自由房1000000金币,1,109004,4,310000,1,4,[1],1,1,2,,
330000,德州扑克二人场,1,,3,30001,1,2,,1,1,2,,
330100,二人场,1,109301,4,330000,1,1,[1],1,1,2,,
320000,德州扑克比赛场,1,,3,30001,1,3,,1,1,2,,
320100,20元话费赛,1,109201,4,320000,1,1,[1],1,1,2,,
320101,20元话费赛,1,109202,4,320000,1,1,[1],1,1,2,,
320102,20元话费赛,1,109203,4,320000,1,1,[1],1,1,2,,
320103,20元话费赛,1,109204,4,320000,1,1,[1],1,1,2,,
320104,100元话费赛,1,109205,4,320000,1,2,[1],1,1,2,,
320105,100元话费赛,1,109206,4,320000,1,2,[1],1,1,2,,
320106,100元话费赛,1,109207,4,320000,1,2,[1],1,1,2,,
320107,1万钻石赛,1,109208,4,320000,1,3,[1],1,1,2,,
320108,1万钻石赛,1,109209,4,320000,1,3,[1],1,1,2,,
320109,1万钻石赛,1,109210,4,320000,1,3,[1],1,1,2,,
320110,1万钻石赛,1,109211,4,320000,1,3,[1],1,1,2,,
320111,2万钻石赛,1,109212,4,320000,1,4,[1],1,1,2,,
320112,2万钻石赛,1,109213,4,320000,1,4,[1],1,1,2,,
320113,2万钻石赛,1,109214,4,320000,1,4,[1],1,1,2,,
320114,2万钻石赛,1,109215,4,320000,1,4,[1],1,1,2,,
320115,50元话费赛,1,109216,4,320000,1,5,[1],1,1,2,,
320116,50元话费赛,1,109217,4,320000,1,5,[1],1,1,2,,
320117,50元话费赛,1,109218,4,320000,1,5,[1],1,1,2,,
320118,每日赚金赛,1,109219,4,320000,1,6,[1],1,1,2,,
320119,每日赚金赛,1,109220,4,320000,1,6,[1],1,1,2,,
320120,每日赚金赛,1,109221,4,320000,1,6,[1],1,1,2,,
40001,水浒传,1,,1,0,2,4,[1],1,1,2,water_margin,water_margin
40101,水浒传自由区,1,,3,40001,1,1,,1,1,2,,
40111,水浒传2000金币入场,1,111001,4,40101,1,1,[1],1,1,2,,
50001,疯狂拼十,0,,1,0,1,5,[1],1,1,2,mad_cow,mad_cow
50002,彩金拼十,1,,1,0,2,6,[1],1,1,2,dt_btn_caijincow,mad_cow_cj
500100,彩金拼十自由房,1,,3,50002,1,1,,1,1,2,,
500101,彩金拼十自由房,1,124005,4,500100,1,1,[1],1,1,2,,
50003,疯狂拼十,1,,1,0,2,6,[1],1,1,2,dt_btn_crazycow,mad_cow
500200,疯狂拼十自由房,1,,3,50003,1,5,,1,1,2,,
500201,疯狂拼十自由房,1,105005,4,500200,1,1,[1],1,1,2,,
50004,抢庄拼十,1,,1,0,2,6,[1],1,1,2,dt_btn_qzcow,mad_cow_qz
500300,抢庄拼十匹配房,1,,3,50004,1,7,[1],1,1,2,,
500301,抢庄拼十新手房,1,123001,4,500300,1,1,[1],1,1,2,,
500302,抢庄拼十中级房,1,123002,4,500300,1,2,[1],1,1,2,,
500303,抢庄拼十高级房,1,123003,4,500300,1,3,[1],1,1,2,,
500304,抢庄拼十VIP房,1,123004,4,500300,1,4,[1],1,1,2,,
