索引,字符串值,整型值,备注
key:string,value:string,limit:int,describe:string
phonenub,,,客服电话
Conversiontimes,,5,背包-话费兑换次数
GoldExchange,,100,背包-金币兑换次数
lattice,,100,背包-格子上限
Singleaudit,,20,背包-单日兑换话费或流量审核条件
Cumulativeaudit,,500,背包-累计兑换话费或流量审核条件
Singlegold,,500000,背包-单日兑换金币审核条件
Cumulativegold,,5000000,背包-累计兑换金币审核条件
modifyNickCost,,100000,修改昵称金币数
Qqnumber,,,官方QQ群号（目前只有PC端使用）
OrderQuantity,,99999,背包提交订单的数量上限（包括话费、流量、实物、金币）
DeviceLimit,,3,异常登录中，保存玩家设备号的上限
donateItemLimit,,10000,单次赠送道具最大数量
donatMaxCnt,,9999,单日赠送道具最大次数
briefCacheSummaryTime,,1800,简要服缓存单个玩家摘要时间
hallCacheDonateTime,,3600,大厅缓存单个玩家赠送控制信息时间(单位秒)
donateMinInterval,,1000,单个玩家赠送请求最短间隔时间(单位毫秒)
MatchSignWaitTime1,,120,点击满人赛报名按钮时，存在已报名的定点赛开赛时间点与当前时间最小值
MatchSignWaitTime2,,600,点击定点赛报名按钮时，存在已报名的定点赛开赛时间点与当前报名的定点赛的开赛时间时间最小值
goldMaxPurchases,,100,金币商城单次购买最大数量
longPressLevel1,"[2,5]",,长按加速1级，长按多少秒后启用该速度，格式为【长按时间，每秒增加数量】
longPressLevel2,"[6,50]",,长按加速2级，长按多少秒后启用该速度，格式为【长按时间，每秒增加数量】
longPressLevel3,"[10,500]",,长按加速3级，长按多少秒后启用该速度，格式为【长按时间，每秒增加数量】
MatchStartTime1,,300,开赛前第一次提醒离开始时间
MatchStartTime2,,60,开赛前第二次提醒离开始时间
MatchStartTime3,,5,开赛提醒离开始时间
maxEnterSceneCout,,3,最大能够进入游戏数量
giftTimeSanYuaStartn,,1509379200,3元礼包倒计时开始时间
giftTimeSanYuan,,1509811199,3元礼包倒计时结束时间
openBetaActiveTime,,1509379200,公测活动开始时间
openBetaActiveTime,,1509811199,公测活动结束时间
rebateRoomCard,"{""roomCard"":10,""rebate"":1}",,"单次购买房卡/充值房卡/兑换10张房卡额外送1张,向下取整"
promoteAward,"2006,18",,被推广者奖励礼包
ddzAwardBulletinMsg,"1元话费卡",,斗地主一元话费赛奖励内容添加机器人数据
18yuanActivity,"1,2,3,4,5,6,7,8",,18元活动关联任务
agentHorn,"102,31,249,31,103,32,248,32",,登录发送银商邮件
bindPhoneAward,,2,绑定手机号赠送人民币，对应2元，乘以ExchangeRate即为金币数
exchangeOutTax,,2,下分手续费比例
minExchangeOut,,1,最小兑换人民币数，乘以ExchangeRate即为金币数
rebateLevelRate,,3000,推广返利层级比例，每下一级递减30%(万分比)
ExchangeRate,,100,人民币-金币兑换比例(1元人民币兑100金币)
production_mode,false,,离线推送开关，外网要改成true
OfflineMessageTag,neice,,设置离线推送的环境，内测：neice；外测：waice;备用外测：waice2;外网:online;外包：waibao
OfflineNotifyURL,http://msg.umeng.com/api/send,,离线网址
cpKey,OOPSJS*!(@#&+OYNWWWTWUZP====QMPAOH/0CJIFLBCQ==,,cp进入签名key
thirdpartReset1,,60,下线60s后如果在第cp三方界面中退出
thirdpartReset2,,120,下线120s后如果在cp二级界面中退出
redPacketTitle,恭喜发财，大吉大利,,红包标题
minRedPacket,,100,红包最小金额单位分
maxRedPacket,,500000,红包最大金额单位分
minRedPacketNum,,1,红包最小数量
maxRedPacketNum,,50,红包最大数量
systemName,管理员,,聊天系统昵称
systemFaceId,,21,聊天系统头像