功能ID,名称,英文名字,类型（策划用）
id:int,name:string,key:string,type:int
1,合成（背包）,prop_combine,3
2,兑换话费（背包）,exchange_tele_expense,3
3,兑换流量（背包）,exchange_cellular_data,3
4,兑换现金（背包）,exchange_cash_rmb,3
5,兑换实物（背包）,exchange_material,3
6,充值礼包,recharge_gift,3
7,每日分享,day_share,1
8,东山再起,share_comeback,3
9,推广赚金,popularize_earn,1
10,分享赚话费,share_earn,3
11,修改头像,change_avatar,3
12,修改昵称,modify_nick,3
13,密保手机,bind_phone,3
14,身份证绑定,bind_id_card,3
15,修改登录密码,modify_account_pwd,3
16,修改银行密码,modify_bank_pwd,3
17,注册账号,registe_account,1
18,找回账号,find_account,1
19,找回密码,find_account_pwd,1
20,账号转正,regular_account,1
21,公告（含走马灯）,bulletin,3
22,邮件,mail,3
23,商城（兑换实物）,mall_excharge_material,1
24,商城（金币购买）,mall_buy_with_silver,1
25,APPSTORE（充值）,recharge_appstore,1
26,支付宝（充值）,recharge_alipay,3
27,微信支付（充值）,recharge_weixin,3
28,网银支付（充值）,recharge_e_bank,3
29,中国移动（充值）,recharge_china_mobile,3
30,中国联通（充值）,recharge_china_unicom,3
31,中国电信（充值）,recharge_china_telecom,3
32,快捷支付（充值）,recharge_quick,2
33,游戏一卡通（充值）,recharge_game_one_card,2
34,锁定本机,lock_machine,2
35,领奖中心,reward_center,3
36,渠道充值,chanal_recharge,3
37,业务类型充值,service_recharge,3
38,设置银行密码,set_bank_password,3
39,返利,game_rebate,1