场景索引ID,路径手机,路径PC,键名
nSceneIndex:int,szSceneRouteMbc:json:array:string,szSceneRoutePc:json:array:string,szBgm:string
1,"{buyu_p_texture/fish_scene01_a.jpg,buyu_p_texture/fish_scene01_b.jpg}","[""scene/fish_scene01_a.jpg"",""scene/fish_scene01_b.jpg""]",bgm1.mp3
2,"{buyu_p_texture/fish_scene02_a.jpg,buyu_p_texture/fish_scene02_b.jpg}","[""scene/fish_scene02_a.jpg"",""scene/fish_scene02_b.jpg""]",bgm2.mp3
3,"{buyu_p_texture/fish_scene03_a.jpg,buyu_p_texture/fish_scene03_b.jpg}","[""scene/fish_scene03_a.jpg"",""scene/fish_scene03_b.jpg""]",bgm3.mp3
4,"{buyu_p_texture/fish_scene04_a.jpg,buyu_p_texture/fish_scene04_b.jpg}","[""scene/fish_scene04_a.jpg"",""scene/fish_scene04_b.jpg""]",bgm4.mp3
5,"{buyu_p_texture/fish_scene05_a.jpg,buyu_p_texture/fish_scene05_b.jpg}","[""scene/fish_scene05_a.jpg"",""scene/fish_scene05_b.jpg""]",bgm5.mp3
