功能序号,信息来源功能,显示语句模板,有效时间（秒钟）,显示方式,显示频率,公告播放频率,显示平台,公告优先级,公告显示时间,公告标题,公告链接,公告发送的产品,公告显示的游戏
bulletinID:int,resource:string,content:string,timelong:int,displayType:int,displayFrequence:int,playFrequence:int,platform:int,priority:int,showTime:string,title:string,link:string,channelList:json:array:string,gameList:json:array:int
1,游戏奖励,恭喜[color=#00FF00]%s[/color]在[color=#000000]%s[/color]游戏中赌神附体，获得了[color=#00FF00]%s[/color]金币,100,2,5,0,2,7,,,,[],[]
2,现金提取,恭喜[color=#00FF00]%s[/color]玩家在游戏中日进斗金，成功提取[color=#00FF00]%s[/color]元现金,,,0,,,,,,,,
3,VIP充值,支持多种充值方式，更有VIP充值回馈，秒冲到账，单场返利最高可达28888元，请认真官方唯一网【www.xinbo.com】,,,,,,,,,,,
4,无限推广,加入全民代理，支持无限奖励额度，月入百万不是梦。,,,,,,,,,,,
