提示语id,错误码名字key,提示内容,类型,标题,备注
id:int,key:string,tip:string,type:int,title:string,note:string
-20000,inner_server,服务器内部错误(-20000),1,,场景公共
-20001,in_scene,已经在场景内,1,,场景公共
-20002,scene_player_not_exist,场景玩家不存在,1,,场景公共
-20003,not_in_scene,不在场景内,1,,场景公共
-20004,basedatamgr_null,BaseDataMgr 为空,1,,场景公共
-20005,baseroomsetting_null,房间配置表为空,1,,场景公共
-20006,scene_null,场景为空,1,,场景公共
-20007,scnee_id_invalid,场景ID不一致,1,,场景公共
-20008,roomsetting_extend_invalid,房间配置表扩展字段非法,1,,场景公共
-20009,scene_game_setting_null,场景游戏对应配置表为空,1,,场景公共
-20010,roomsetting_gamekind_invalid,房间配置表游戏类型非法,1,,场景公共
-20011,in_scene_not_signup,已进场景，未报名,1,,场景公共
-20012,signuped_no_mate,已报名未匹配,1,,场景公共
-20013,maintenance_please_wiat,维护期间，请稍后再试,1,,场景公共
-20014,not_in_room_game_time,此房间还没到游戏时间,1,,场景公共
-22000,signuped,已经报名比赛，不能重复报名,1,,超快赛
-22001,in_cost_no_signup,您当前处于比赛扣费阶段，不能重复报名比赛,1,,超快赛
-22002,money_less_no_signup,报名费不足，不能报名比赛,1,,超快赛
-22003,fast_match_player_not_exist,超快赛玩家不存在,1,,超快赛
-22004,match_gameatomtypeid_invalid,比赛信息不合法,1,,超快赛
-22005,fast_match_cfg_null,超快赛配置为空,1,,超快赛
-22006,signup_condition_invalid,比赛报名条件非法,1,,超快赛
-22007,notify_hall_sub_signup_cost_fail,通知大厅扣费失败,1,,超快赛
-22008,roomtype_not_match_full,房间类型不是满人赛,1,,超快赛
-22009,in_cost_no_cancel_signup,已进入比赛报名扣费阶段，不能退赛,1,,超快赛
-22010,mated_no_cancel_signup,已匹配，不能退赛,1,,超快赛
-22011,match_begin_no_cancel,比赛已开始了，不能退赛,1,,超快赛
-22012,get_match_scene_data_error,获取比赛场景数据失败,1,,超快赛
-22013,signup_cost_unit_not_exist,比赛报名扣费信息不存在,1,,超快赛
-22014,signup_cost_no_forece_exit,超快赛收费阶段，非法强退操作,1,,超快赛
-22015,match_collect_not_signup,收集状态阶段，不能重复报名比赛,1,,超快赛
-22016,signup_extend_param_invalid,比赛报名扩展参数非法,1,,超快赛
-22017,match_collect_not_cancel,收集状态阶段，不能退赛,1,,超快赛
-24000,room_cost_not_engough,房费不足，不能进入,1,,系统房
-24001,roomtype_not_sys,房间类型不是系统房,1,,系统房
-24002,sys_player_not_exist,系统房玩家不存在,1,,系统房
-24003,sys_gameatomtypeid_invalid,系统房信息不合法,1,,系统房
-24004,sys_entered,已进入系统房，不能重复报名进入，未走重连流程,1,,系统房
-24005,sys_collect_not_enter,收集状态阶段，不能重复进入,1,,系统房
-24006,sys_min_gold_coin,系统房最小金币限制非法,1,,系统房
-24007,sys_exit_return_goldcoin,强退返回金币到大厅途中，请勿重复操作,1,,系统房
-24008,sys_min_score_invalid,系统房底分不合法,1,,系统房
-24009,sys_max_score_gold,系统房最大金币不合法,1,,系统房
