唯一键(从1开始递增，不能间断，不能重复),AI昵称,AI头像id,vip等级
uniqueId:int,nickname:string,avatarId:int,vipLvl:int
1,蜗牛般的神速,5,3
2,青春vs无痕,19,3
3,国宾00579584,18,0
4,路VS缘,14,0
5,小超love,13,1
6,造梦先生hh,1,0
7,国宾00341742,7,3
8,来宾00777773,11,1
9,国宾00757541,12,3
10,国宾00467335,8,1
11,国宾00772943,3,1
12,城市酒鬼,10,3
13,来宾00769487,17,3
14,国宾00730667,17,1
15,国宾00792167,14,3
16,迷失VS财神,15,3
17,李Marlboro,12,1
18,国宾00296869,15,3
19,来宾00761493,17,3
20,国宾00734276,19,2
21,大宝sunny,1,3
22,国宾00670410,11,3
23,国宾00792363,7,3
24,国宾00683646,5,2
25,黑旋风no,20,1
26,国宾00756088,4,0
27,我爱他他爱她,18,1
28,来宾00770850,16,4
29,国宾00617190,8,1
30,鲜凝雁,9,2
31,Soller,2,4
32,珊珊love,2,0
33,小红花GD,2,1
34,国宾00769606,4,1
35,来宾00796879,14,4
36,律野CHEN,17,2
37,Ho调戏你,1,1
38,国宾00693589,14,2
39,King丨情殇,5,3
40,请叫我o小宝,2,1
41,国宾00776671,13,3
42,雨后彩虹Zubi,18,1
43,Enya小淑女,10,0
44,国宾00602299,14,1
45,国宾00638075,1,0
46,国宾00747814,2,2
47,线君浩,6,1
48,来宾00768014,4,2
49,M小白M,1,3
50,CAPFWH,11,4
51,coco蕊,13,0
52,国宾00588303,11,2
53,Millay,14,2
54,土木工程丶,15,1
55,国宾00412244,11,2
56,国宾00761817,10,3
57,吖谁家的妞,18,1
58,夏qq玉,17,2
59,皆空WS,12,2
60,国宾00653498,9,3
61,国宾00545808,5,2
62,最强k王者,18,2
63,春城夜色,13,0
64,国宾00276066,10,3
65,阿宝的救赎,11,1
66,国宾00767653,2,4
67,我不是陈智聪,15,1
68,玫瑰是我偷de,11,2
69,国宾00703114,7,1
70,曲总ii,2,2
71,国宾00743248,9,0
72,我沉了我成了,17,4
73,国宾00505317,17,3
74,国宾00548943,11,1
75,执迷不悟i,6,3
76,国宾00226423,17,4
77,xiao小明,3,2
78,半夏微凉xx,3,1
79,国宾00589483,6,3
80,恭喜发财oo,20,2
81,国宾00668481,2,3
82,SuperKK,9,3
83,国宾00547802,16,3
84,国宾00712537,13,0
85,国宾00621488,17,3
86,国宾00355508,4,3
87,国宾00791542,7,0
88,任会杰NM,2,1
89,阿曾任我家,8,3
90,入戏太深Mc,15,3
91,昊宇GG,10,3
92,国宾00813465,3,3
93,阿嫦她老公,4,2
94,丨L丑男T屮,12,0
95,我的心在等待,5,4
96,国宾00625873,10,2
97,阿呆向前跑,12,3
98,国宾00559656,10,1
99,国宾00538561,13,4
100,输赢一场梦R,12,4
101,国宾00767397,20,0
102,国宾00725915,6,2
103,国宾00691386,10,2
104,挺OK的小女人,7,3
105,国宾00440974,7,0
106,国宾00814955,11,1
107,来宾00761246,14,1
108,国宾00746219,16,3
109,MC赌徒,16,4
110,国宾00722334,10,0
111,L一夜倾情L,20,3
112,国宾00699686,14,1
113,MC七羽,5,4
114,国宾00655599,5,1
115,国宾00771985,6,1
116,卡哇伊de娃娃,15,3
117,Mc轩宇,17,2
118,国宾00636282,17,1
119,慕容YY,13,1
120,Star琦,14,3
121,我给你做手术,8,3
122,国宾00661812,18,3
123,我胡我胡胡胡,7,4
124,来宾00784506,18,2
125,约翰M沫沫,7,3
126,Mx喵喵,19,3
127,国宾00769722,16,4
128,纯情先森,20,1
129,国宾00815467,14,2
130,国宾00451008,6,1
131,国宾00775884,9,2
132,伊人M兮兮,4,4
133,阿尔贡风格,11,3
134,J我是你大哥R,5,1
135,国宾00660858,10,3
136,阿尔普洛斯,14,1
137,天天点播gffg,19,2
138,国宾00603929,13,2
139,来宾00780786,5,1
140,国宾00811539,4,2
141,我就是你男神,7,3
142,国宾00778546,2,1
143,国宾00681096,7,3
144,国宾00747515,8,2
145,大鼻涕精,20,2
146,国宾00569053,14,1
147,瑶M不可及,8,2
148,国宾00625837,18,2
149,国宾00809604,6,4
150,国宾00663867,13,1
151,国宾00753817,6,2
152,国宾00332100,10,2
153,国宾00189581,10,1
154,国宾00788451,20,4
155,国宾00219098,13,2
156,大斗帝主,2,2
157,国宾00743885,9,1
158,秘花园K丨雨R,20,2
159,国宾00351760,10,2
160,国宾00621141,12,2
161,国宾00363629,6,0
162,国宾00725524,13,0
163,国宾00590435,6,3
164,国宾00763296,10,4
165,L扯淡T赌神,11,0
166,大金财神,5,2
167,国宾00593487,10,4
168,国宾00495893,16,4
169,国宾00747699,9,3
170,国宾00647797,14,1
171,雪love辉,3,2
172,国宾00617208,10,3
173,OO熊猫OO,2,2
174,彤宝贝vicky,17,3
175,大内烦恼,20,3
176,阿费罗蒂黛,5,2
177,国宾00516944,7,2
178,小小肚兜V,19,4
179,国宾00552378,11,1
180,我们都是路人,18,2
181,萧公主,14,1
182,国宾00777376,16,2
183,来宾00790095,16,2
184,在下叶良辰Rs,11,2
185,国宾00525816,7,1
186,国宾00605742,19,1
187,帅哥handabao,15,2
188,小兔子hufh,17,3
189,夏侯R夜王彡,19,3
190,mc背后总指挥,4,2
191,Su小航,20,0
192,国宾00237344,11,4
193,这一刻love吧,10,1
194,梦里花落wy,17,2
195,夏洛特烦恼R,16,1
196,国宾00814723,6,2
197,晴天宝宝ymca,20,2
198,国宾00623189,3,4
199,国宾00772870,12,0
200,国宾00776408,12,2
201,国宾00441016,2,4
202,国宾00739406,13,3
203,我抛我抛抛抛,18,1
204,国宾00622975,12,1
205,BaBY刘,2,3
206,国宾00806305,13,0
207,国宾00736779,20,3
208,大鹏展翅,2,0
209,AM山楂树,6,0
210,我是北方地区,6,4
211,大小都跟,8,1
212,大雪跑天,2,4
213,国宾00614557,5,2
214,小白小,18,4
215,国宾00831330,14,1
216,姝儿oO,16,0
217,国宾00700649,14,4
218,来宾00788787,4,2
219,糊涂虫ok,18,0
220,爱LOVE,14,1
221,国宾00434992,17,2
222,国宾00746932,20,3
223,阿凯董事长,11,3
224,国宾00167473,13,0
225,醉M涩狼,11,0
226,国宾00506933,17,4
227,阿克苏以后,8,1
228,国宾00773046,9,1
229,大鱼来了,19,3
230,国宾00715079,7,4
231,爆Seed,19,2
232,Mano艾丁,12,3
233,国宾00107145,4,0
234,我是点点墨墨,1,2
235,听风吹雨M,14,3
236,小得瑟,5,4
237,小冬哥,2,1
238,国宾00811271,14,1
239,国宾00770472,5,4
240,国宾00833865,20,3
241,w大圣w,4,2
242,国宾00360657,20,1
243,国宾00517963,10,2
244,来宾00784892,6,1
245,国宾00746105,18,1
246,国宾00564355,12,2
247,国宾00440528,5,4
248,阿莱克斯克,6,3
249,国宾00141847,17,1
250,阿兰史密斯,3,0
251,阿狸爱小熊,5,2
252,可乐dede,15,2
253,国宾00789038,17,1
254,love晓涛,20,3
255,我是徐瘦瘦啊,10,1
256,小栋哥,8,2
257,来宾00800207,7,3
258,阿里决定分,12,3
259,阿林的江湖,18,2
260,我是只小甜菜,11,4
261,国宾00805638,2,1
262,国宾00531629,15,1
263,谁知我心M,10,4
264,国宾00496709,4,2
265,国宾00699485,7,1
266,阿隆索的神,5,1
267,适者生存i,19,3
268,国宾00718962,3,1
269,XO星海,14,1
270,我心狂野飙车,20,3
271,来宾00828924,19,3
272,国宾00413651,14,2
273,国宾00614042,11,0
274,国宾00577121,11,3
275,国宾00756954,3,0
276,A香饽饽A,20,0
277,国宾00736137,9,3
278,love我希,4,0
279,我姓郭我信过,14,3
280,love王子,17,1
281,国宾00618128,1,0
282,a爱无量a,14,2
283,love兔儿,8,1
284,国宾00642438,13,1
285,国宾00767753,3,1
286,小乖男,13,0
287,国宾00673363,15,4
288,x麦吉x,15,2
289,来宾00785545,10,3
290,国宾00758979,5,2
291,YX阿鑫,15,0
292,国宾00774110,16,4
293,国宾00637688,14,2
294,国宾00688076,1,2
295,我有故事和酒,4,1
296,O天使也怀孕O,15,0
297,国宾00639500,4,0
298,当个太阳,12,1
299,国宾00716350,7,4
300,我有我的温柔,18,3
301,得意马达,8,1
302,国宾00678517,7,3
303,国宾00763527,9,3
304,尼古丁de味道,2,0
305,国宾00717702,20,4
306,情系奈何桥AA,18,2
307,蝴蝶飞飞yy,6,3
308,国宾00728592,15,1
309,小浩浩,17,2
310,国宾00678365,19,3
311,国宾00742216,2,1
312,刘文正y卜专Y,14,1
313,国宾00587243,4,4
314,领悟MH,15,3
315,高扬gM,1,2
316,国宾00792923,2,3
317,来者居上eg,3,3
318,国宾00569437,9,1
319,国宾00745744,17,0
320,国宾00795417,17,1
321,国宾00777604,10,2
322,hehe禾禾,20,3
323,国宾00676522,7,0
324,国宾00730228,15,0
325,国宾00585639,12,0
326,国宾00787870,14,0
327,国宾00102595,12,1
328,德惠青年,19,2
329,我咋就那么猛,19,2
330,阿姆榭绿洲,15,0
331,国宾00473210,19,2
332,风吹屁屁凉cy,6,3
333,刘文正gggc,16,0
334,唯爱疼妳Oo,17,4
335,国宾00638819,18,3
336,国宾00562210,17,4
337,国宾00707828,11,2
338,昨日情已逝A,2,1
339,来宾00783932,15,3
340,妮妮cc,10,3
341,国宾00654169,4,1
342,国宾00726589,8,4
343,低调的张,6,2
344,国宾00763723,6,4
345,娱乐百分百ll,10,4
346,无聊的游戏aa,12,0
347,国宾00597807,10,3
348,小健健,14,0
349,地狱匹夫,19,0
350,国宾00696088,9,2
351,国宾00731896,9,4
352,国宾00617273,18,1
353,cain澜,19,1
354,小金哥,2,3
355,baby曦,9,3
356,寂寞A点支烟,2,3
357,嘴甜办事稳M,19,0
358,国宾00711372,11,2
359,国宾00678107,15,0
360,国宾00833904,20,3
361,笑看R生,16,2
362,国宾00654157,17,1
363,迪哥Cc,19,1
364,社会NB你超哥,19,1
365,弟大勿博,20,1
366,国宾00522236,3,1
367,我在想琳宝宝,14,3
368,我最讨厌饺子,20,1
369,别克君威ii,18,2
370,阿萨德狗狗,8,3
371,国宾00799977,6,0
372,阿萨经考核,5,2
373,阿森纳球迷,6,1
374,来宾00783553,15,3
375,国宾00687214,13,4
376,国宾00634551,20,1
377,国宾00561589,5,2
378,天蓝色de彼岸,19,2
379,国宾00763046,20,2
380,来宾00832522,20,3
381,小镜子,5,4
382,家乐福海盗ol,19,4
383,国宾00740722,2,3
384,柔情Y凯子,12,3
385,刻骨铭心dm,11,1
386,夜色VS色夜,19,2
387,我今天必胜ye,20,3
388,国宾00467951,1,3
389,国宾00593513,7,1
390,小M思M绪,9,2
391,乌兰巴托的夜,6,1
392,小狼瓜,18,3
393,无聊玩游戏呗,14,3
394,国宾00381877,13,0
395,长春吴彦祖M,3,1
396,宏宇gg,13,3
397,走猫步de鱼,16,1
398,国宾00667425,20,2
399,东方不败,11,2
400,国宾00780461,15,4
401,国宾00793565,19,1
402,五个王怕不怕,12,1
403,国宾00782694,20,1
404,国宾00775862,3,1
405,阿斯顿的事,13,1
406,国宾00728045,17,3
407,阿斯顿模拟,4,1
408,Love猪,9,3
409,国宾00647281,13,2
410,国宾00586869,14,0
411,东方之云,12,4
412,国宾00449577,18,2
413,东哥潇洒,10,3
414,国宾00629806,17,3
415,国宾00579859,12,4
416,love平,9,2
417,傻diao的人生,9,0
418,浅夜M若兮,17,2
419,刘朵er,14,3
420,国宾00523826,2,2
421,国宾00559286,5,1
422,国宾00556696,18,2
423,侦探wweee,13,2
424,国宾00603506,10,2
425,小猎貂,9,3
426,浅绯o绮色,14,4
427,冬天钓鱼,1,2
428,国宾00624503,5,4
429,国宾00528458,19,1
430,国宾00602563,18,3
431,国宾00641983,15,3
432,国宾00537746,19,1
433,一幺定乾坤i,9,1
434,国宾00829686,5,1
435,动车餐车,18,4
436,斗地主哥,15,3
437,国宾00529872,1,3
438,斗逗乐斗,19,2
439,国宾00769751,11,2
440,cn小柠檬,16,4
441,小心脏a,6,1
442,孤独游侠jq,2,1
443,阿斯顿小于,9,2
444,国宾00770450,19,3
445,小淼淼,9,4
446,千夫所指V,4,3
447,国宾00707479,14,3
448,阿斯俄方那,18,3
449,国宾00815006,6,3
450,美少女战士Lg,15,3
451,阿香奥斯卡,17,3
452,V血色辉煌,20,3
453,国宾00635594,6,0
454,小布丁MM,9,1
455,阳光MI,5,2
456,小鲜肉gx,18,1
457,斗神尊王,13,1
458,请叫我欧巴ye,12,1
459,国宾00509232,18,0
460,转身de距离,15,3
461,V未婚夫丨,19,2
462,小蔫吧,9,2
463,西丰重点高中,5,2
464,baby公主,20,3
465,国宾00673005,1,3
466,罂Ir粟,7,4
467,ol家乐福海盗,12,1
468,斗圣王后,16,2
469,亮亮仔LL,2,2
470,国宾00647379,4,1
471,cm的长腿欧巴,11,2
472,V千夫所指,3,1
473,枭之M不良帅,2,4
474,国宾00783043,19,2
475,MC德莱文,9,2
476,国宾00773085,6,1
477,国宾00677550,20,3
478,宇VS哥,4,2
479,国宾00728939,16,3
480,啊不错地方,10,2
481,国宾00699033,19,2
482,V君临天下,5,4
483,国宾00783275,6,0
484,国宾00773829,14,3
485,嘻嘻哈哈智宇,9,1
486,国宾00814088,5,1
487,国宾00301573,17,1
488,国宾00737025,7,2
489,喜欢多次掌声,3,1
490,披星戴月M,12,2
491,国宾00774300,10,1
492,习惯了n就好,14,0
493,国宾00410111,20,1
494,霜日zz,20,1
495,孤魂野鬼aa,16,4
496,赌神大象,20,3
497,度第年秒,11,4
498,国宾00604294,14,1
499,国宾00457357,15,1
500,youlanda荟,14,4
501,国宾00545424,3,2
502,国宾00764202,12,3
503,年少M轻狂,8,3
504,国宾00249858,4,3
505,上善若水Gg,16,3
506,逆天M小贤,5,0
507,国宾00355887,17,3
508,Abby冉冉,10,1
509,国宾00706554,18,3
510,J简简R单单丨,17,3
511,国宾00635160,11,2
512,love贝贝,5,3
513,性感美眉BABy,10,3
514,国宾00621958,12,1
515,落叶的忧伤aa,11,1
516,国宾00638011,18,4
517,稍微麻辣show,17,2
518,国宾00763731,8,3
519,国宾00729755,10,1
520,国宾00806458,3,3
521,国宾00671414,6,4
522,国宾00766909,20,2
523,国宾00776799,20,2
524,国宾00766386,19,1
525,skylover,14,0
526,国宾00640312,11,1
527,相识不如偶遇,15,2
528,葙见卟洳懐惗,18,3
529,小葡萄,6,3
530,国宾00745269,15,3
531,yy咫尺天涯,17,0
532,小欠欠,16,1
533,洋洋vS悦悦,10,1
534,二龙腾飞,1,2
535,国宾00433501,14,2
536,国宾00764968,6,2
537,国宾00766406,6,3
538,想吃猫的耗子,11,4
539,生生LOVE玉玉,15,3
540,三国VS,4,3
541,落败的唯美i,11,0
542,来宾00810286,3,2
543,国宾00773057,20,3
544,国宾00311497,11,2
545,Soulmate,14,4
546,亮乄帝王M邪,15,0
547,奋斗de小青年,14,3
548,国宾00635552,1,4
549,国宾00206507,5,3
550,国宾00704366,2,2
551,国宾00777444,12,2
552,国宾00728428,13,3
553,消遣一下时间,9,4
554,国宾00569289,3,4
555,小骨yy,9,4
556,胜利ok,12,4
557,国宾00760896,15,0
558,开心就笑笑M,17,1
559,女英雄她的AK,19,1
560,国宾00643833,2,4
561,国宾00401817,13,1
562,凡尘素颜,17,1
563,国宾00323340,6,3
564,国宾00815469,16,3
565,国宾00549462,3,4
566,Queen琳,6,2
567,国宾00736716,20,4
568,绝望生鱼片M,19,0
569,国宾00751884,14,3
570,国宾00813418,14,4
571,国宾00782225,5,4
572,国宾00833154,3,2
573,Luminary熙,20,1
574,国宾00576074,12,1
575,Love依依,18,2
576,国宾00708980,11,0
577,国宾00761145,20,2
578,小样儿yy,6,2
579,国宾00814285,9,2
580,放假一天,5,1
581,小情绪,19,0
582,国宾00758181,17,2
583,国宾00624164,8,2
584,小庆哥,7,4
585,华丽的转身y,11,1
586,来宾00833551,15,1
587,来宾00784529,18,4
588,国宾00770952,5,3
589,来宾00772575,9,2
590,国宾00504453,8,0
591,公主岭M赌神,13,0
592,小白兔兽性大,1,2
593,小不点长大了,6,3
594,疯狂的地主j,7,4
595,马自达M秀,12,0
596,飞大官人,2,1
597,飞飞赢豆,11,3
598,国宾00712525,8,3
599,国宾00651950,6,2
600,花心思LL,7,1
601,米兰cc,15,2
602,国宾00566779,11,4
603,国宾00783871,10,3
604,小人物,17,3
605,西瓜精w,11,0
606,国宾00699715,6,3
607,国宾00220628,17,1
608,国宾00704727,4,1
609,淡蓝色M记忆,8,2
610,小闯来临江了,6,2
611,国宾00635430,5,2
612,未填写M,5,4
613,小崔爱打麻将,12,0
614,可乐VS珍珍,20,1
615,小瑞瑞,9,1
616,国宾00725346,2,1
617,国宾00793932,20,3
618,mt山水一樵,16,1
619,WY的奴隶,19,1
620,连毛胡子g,6,0
621,国宾00662569,13,2
622,飞龙炫影,6,2
623,飞马匪徒,8,1
624,唯她命C,3,0
625,国宾00791508,10,3
626,国宾00516264,20,4
627,利利利利w,10,0
628,国宾00359760,7,3
629,国宾00366940,6,2
630,Miko若曦,8,1
631,玖伴凉城i,20,1
632,MISS国哥,16,0
633,国宾00814548,17,3
634,国宾00530853,16,3
635,LOVE用心许诺,10,2
636,金牌男凯M,1,2
637,国宾00564316,14,1
638,小鹤子俺媳妇,7,1
639,oO独来独往Oo,12,4
640,国宾00730442,18,0
641,挨打小麻雀,11,3
642,挨揍的铁牛,20,4
643,叫我欧巴M,5,3
644,国宾00763892,6,4
645,飞天九尾,13,3
646,国宾00688378,7,2
647,你真够呛AAAA,15,1
648,国宾00641058,15,3
649,国宾00789749,6,4
650,Only祸害,5,1
651,yy小公主,6,0
652,国宾00442422,15,1
653,飞翔鸟儿,14,2
654,妃倪莫属,5,1
655,国宾00336753,2,3
656,国宾00730447,14,2
657,国宾00515439,1,0
658,国宾00657355,5,3
659,国宾00554718,19,1
660,国宾00717461,19,0
661,国宾00488575,15,1
662,国宾00777111,20,3
663,国宾00792298,16,1
664,爱的味道zj,17,3
665,小坏蛋之小雅,15,2
666,国宾00656802,5,0
667,国宾00768203,17,1
668,来宾00786232,9,2
669,国宾00336939,14,3
670,粉色幽灵,1,3
671,国宾00804961,3,4
672,捱三顶四打,9,2
673,国宾00713020,16,1
674,潶se尐潴,10,3
675,国宾00632469,4,2
676,国宾00447947,8,3
677,国宾00774050,5,3
678,好好笑哦i,2,1
679,愤怒的公,13,1
680,国宾00578691,20,0
681,国宾00352393,20,4
682,国宾00798856,18,2
683,国宾00709576,7,2
684,矮个子托尼,3,1
685,国宾00674541,12,1
686,矮景村部落,11,3
687,国宾00640097,18,4
688,国宾00412159,16,2
689,来宾00783604,3,3
690,国宾00763142,8,2
691,国宾00793935,10,3
692,国宾00705541,3,1
693,ni值得wo拥有,5,1
694,小苏瑾,16,1
695,a风调雨顺a,2,3
696,风雨之刃,3,2
697,国宾00742500,5,1
698,国宾00698940,18,1
699,国宾00346823,14,0
700,Shim烟火,14,2
701,风中的云,8,2
702,sill梦瑶,17,1
703,国宾00630824,18,0
704,小太阳,19,0
705,风中之声,18,1
706,国宾00782653,13,0
707,国宾00767308,12,1
708,国宾00801159,19,1
709,辣T条T,19,1
710,love始终如一,15,2
711,国宾00742665,18,1
712,艾斯火之子,2,4
713,国宾00673022,16,2
714,枫叶落了,12,2
715,国宾00764940,14,2
716,国宾00801864,9,4
717,国宾00740507,5,4
718,枫叶诱惑,18,3
719,国宾00777059,12,4
720,国宾00319818,4,3
721,国宾00737871,4,2
722,久伴wo,6,2
723,封龙古塔,16,3
724,疯狂妞妞,2,1
725,来宾00832992,20,0
726,艾薇儿宝贝,17,3
727,小淘气,2,2
728,多情D剑客,19,3
729,国宾00658628,9,1
730,A神会o心姐,7,4
731,子龙AA,5,2
732,A神会o芯总,2,0
733,来宾00805196,17,2
734,国宾00562664,17,2
735,国宾00811210,12,1
736,峰阿我去,8,3
737,国宾00804884,5,3
738,赌神归来c,17,2
739,爱不是距离,11,3
740,国宾00692034,3,3
741,为了LOVE而战,2,3
742,国宾00317469,20,1
743,国宾00587816,11,1
744,国宾00512248,13,2
745,国宾00739904,14,3
746,来宾00761358,8,2
747,国宾00714868,18,3
748,sunny执念,5,3
749,super蓝莓,11,4
750,刨幺贼NB,18,4
751,国宾00684788,15,2
752,国宾00696023,2,3
753,国宾00759296,4,2
754,国宾00777490,12,2
755,yongheng永恒,6,1
756,光学仪器yz,13,0
757,V笑只饰表情,7,3
758,小猫跳跳yy,17,1
759,国宾00640524,20,3
760,国宾00533098,9,1
761,欧巴桑i,5,3
762,不忘初心oO,15,2
763,畅LOVE想,1,1
764,YOYO倩倩,19,2
765,葬心ss,12,4
766,国宾00645758,20,1
767,极du潇洒,8,4
768,碧赢by,14,1
769,国宾00767217,6,4
770,国宾00813149,7,3
771,国宾00783904,14,2
772,龙哥哥ya,10,2
773,国宾00791638,6,4
774,国宾00415302,20,1
775,娜样年华love,2,4
776,国宾00716417,7,1
777,小小宝oO,10,1
778,小玩子sl,8,3
779,爱城市老鼠,8,3
780,国宾00792525,13,3
781,爱吃荤的鱼,2,1
782,国宾00255226,11,2
783,国宾00767589,5,2
784,国宾00664055,13,4
785,国宾00751714,10,2
786,爱吃老友面,9,3
787,许萌萌er,12,1
788,爱吃猪肉片,14,2
789,浅蓝se天空,11,3
790,国宾00653375,12,3
791,国宾00812505,7,1
792,服务热线,17,1
793,浮华人生,3,3
794,富二代他,3,3
795,国宾00323236,7,2
796,国宾00456133,2,3
797,洋洋oo,10,3
798,爱穿开裆裤,2,3
799,盖世豪侠,1,4
800,高仪游戏,18,4
801,温柔DE球球,7,2
802,洋洋AW,17,4
803,小雪雪,4,4
804,国宾00774698,8,0
805,梦以慌i,6,2
806,雷克萨斯ES,4,2
807,杨总OK,3,0
808,国宾00600996,1,3
809,爱穿透点的,16,4
810,爱达爱生活,17,0
811,一花一世界v,17,2
812,国宾00812718,12,1
813,国宾00657863,6,1
814,小丽我喜欢你,14,0
815,小雅歌,11,2
816,旧时光jv,11,0
817,Duang加特效,2,1
818,宝宝LOVER,17,3
819,小雨love宝宝,16,0
820,恭喜美眉,7,1
821,孤独的我,9,3
822,国宾00447226,1,1
823,小猎人猎美女,19,0
824,国宾00572335,9,3
825,优衣库TT,7,0
826,小泡泡的眼泪,6,1
827,国宾00814490,9,1
828,小姚凯,8,2
829,爱得狠寂寞,10,1
830,国宾00705549,7,0
831,L深海捞大鱼,2,2
832,苏哲sh,10,4
833,M惜花公子,20,0
834,刨总vs全服,13,1
835,T放肆的沉沦,4,0
836,T铁臂阿童木,20,3
837,国宾00731385,7,1
838,国宾00780487,12,3
839,国宾00764988,20,3
840,蒙奇奇M,6,1
841,国宾00734988,8,0
842,小野狼,19,1
843,国宾00527360,11,1
844,国宾00781243,16,1
845,国宾00396121,6,0
846,国宾00501546,1,0
847,鼓动风云,8,1
848,麻麻哒M,14,1
849,国宾00686037,8,3
850,M微风拂柳,14,3
851,九个四一个A,5,3
852,瓜尔佳滂,3,4
853,来宾00776962,20,3
854,国宾00743862,12,3
855,小破屁孩儿儿,18,3
856,M深黑枫叶,12,1
857,小B放学别走,5,2
858,小K亲戚亲戚,8,1
859,国宾00653444,3,1
860,国宾00486371,12,4
861,叛徒AA,8,0
862,温柔少男Priy,2,1
863,骆秀敏i,8,3
864,国宾00728106,12,2
865,陌默pc,16,1
866,国宾00622875,1,3
867,R暧R魅,17,2
868,国宾00360606,2,3
869,国宾00748780,19,2
870,飞火T烟很浓,6,3
871,乖乖虎仔,11,2
872,观通广告,18,2
873,流星雨de爱,13,2
874,国宾00733892,13,1
875,国宾00657462,5,2
876,光之晨曦,4,1
877,桂花婆婆,5,3
878,国宾00766645,13,2
879,国宾00267669,10,2
880,不服就是T磕,9,2
881,国宾00725049,12,2
882,单身小伙s,13,1
883,国宾00598986,8,3
884,国宾0079509,19,1
885,国宾00684728,12,2
886,国宾00205870,3,2
887,爱丁堡酒店,15,2
888,小苏家的大叔,7,4
889,莞尔一笑me,8,2
890,小太阳思密达,19,0
891,国宾00766998,9,3
892,国宾00768302,7,4
893,冷锋gg,6,1
894,国宾00590228,10,1
895,爱逗狗的猫,10,1
896,国宾00791135,20,0
897,国宾00614314,11,0
898,爱过才心通,13,2
899,来宾00806121,11,3
900,国宾00813310,13,2
901,国宾00807886,13,4
902,国宾00693754,5,1
903,国宾00706004,6,4
904,国宾00466518,15,2
905,小兔子吃萝卜,14,1
906,国宾00737896,3,1
907,国宾00736159,11,2
908,不管z爱谁谁,7,1
909,国宾00722483,2,2
910,来宾00794923,6,3
911,国宾00728113,4,0
912,国宾00331696,20,1
913,国宾00794097,7,3
914,国宾00806041,15,0
915,好高档城,14,0
916,执着De爱你,4,1
917,国宾00560234,15,3
918,爱幻想的鼠,1,1
919,国宾00813257,2,2
920,国宾00380407,4,2
921,国宾00770704,12,3
922,国宾00694644,9,1
923,国宾00447972,9,3
924,元欧巴ye,15,2
925,国宾00639713,9,4
926,国宾00264806,19,2
927,小小小小彭彭,7,1
928,国宾00470409,16,2
929,小长春,19,3
930,从此低调M,7,0
931,shine蜜糖,17,1
932,爱家的老头,4,2
933,国宾00654396,6,2
934,国宾00779394,16,0
935,王公子TT,3,2
936,国宾00762263,5,2
937,小哲哥,17,2
938,林拉风q,8,1
939,筱伙孜,9,2
940,国宾00542057,18,0
941,国宾00768057,4,1
942,浩宇苍龙,5,3
943,爱进行到底,10,3
944,冷M沉沦,14,2
945,国宾00768279,18,1
946,国宾00171419,6,2
947,OnlyM雪魂,18,2
948,国宾00701128,10,2
949,国宾00708178,15,2
950,国宾00679971,5,1
951,筱小忘,20,2
952,国宾00457804,2,0
953,奔放的小B,12,0
954,国宾00708591,9,4
955,老鼠VS,11,3
956,牛牛DangD硬,7,3
957,唯依se彩,19,2
958,帅T一塌糊涂,15,3
959,来宾00778282,18,2
960,国宾00829799,2,1
961,校紫翠,16,2
962,爱看打老虎,12,2
963,国宾00773631,12,4
964,奔波儿霸b,2,0
965,国宾00770146,15,1
966,国宾00676180,6,0
967,霸气回荡g,6,2
968,国宾00536491,8,3
969,国宾00720759,4,3
970,爱哭的葡萄,12,4
971,国宾00473371,9,1
972,国宾00796443,8,0
973,爱恋的纸筒,11,3
974,国宾00734091,12,2
975,国宾00775482,7,0
976,笑七兄,15,1
977,国宾00585942,14,4
978,国宾00653440,4,3
979,小妖精赢赢赢,16,3
980,小宇宙不会飞,9,1
981,皓月当空,15,2
982,国宾00715332,8,1
983,国宾00633818,13,1
984,暗夜未央D,20,1
985,笑笑玲,3,3
986,国宾00767888,11,3
987,国宾00534541,5,1
988,国宾00355698,10,1
989,国宾00583651,16,3
990,Z庸人自扰,7,3
991,国宾00114500,8,4
992,邪鲨号,16,3
993,国宾00784239,14,1
994,Happy伍仔,2,3
995,国宾00780688,7,3
996,国宾00726819,10,2
997,国宾00623707,5,1
998,国宾00768423,15,2
999,happy王子,19,0
1000,年少T爱得瑟,8,3
1001,众爱卿平身l,2,2
1002,Y恶魔先生,4,1
1003,和平鸽子,12,3
1004,黑白麒麟,9,2
1005,国宾00387060,8,2
1006,黑白森林,12,1
1007,黑波冠军,16,2
1008,Ghost冷寒,3,1
1009,就来个A,5,1
1010,国宾00413163,14,3
1011,国宾00631088,14,3
1012,鑫鑫吉,8,3
1013,国宾00704360,16,4
1014,黑色礼服,17,4
1015,国宾00744847,17,4
1016,国宾00783095,10,3
1017,国宾00741038,17,1
1018,爱魅力天使,17,1
1019,国宾00428054,14,3
1020,国宾00731018,16,1
1021,大琳er,18,3
1022,国宾00737258,20,4
1023,主体大人M,8,3
1024,小龙WO,16,2
1025,国宾00300591,14,1
1026,国宾00713281,2,0
1027,久伴她M,6,2
1028,国宾00716948,2,2
1029,国宾00783137,14,0
1030,国宾00815428,20,3
1031,杜蕾斯的爱T,19,4
1032,来宾00778714,13,1
1033,金玫瑰i,7,1
1034,小Guoer,14,1
1035,至于终老M,8,2
1036,笑着面对人生,19,1
1037,国宾00763443,8,3
1038,狼行天下Bali,2,1
1039,赌侠wj,7,0
1040,国宾00831552,8,0
1041,FaciM北城,17,2
1042,国宾00814788,1,0
1043,星期八,13,0
1044,天赋异禀oh,20,3
1045,爱那个天使,2,3
1046,国宾00520336,7,4
1047,国宾00535201,10,1
1048,小米手机note,5,4
1049,Dover小慢,17,1
1050,国宾00750490,6,3
1051,国宾00603431,19,2
1052,国宾00664647,17,0
1053,国宾00772640,9,4
1054,来宾00801346,9,2
1055,新月格格驾到,19,1
1056,国宾00603784,8,1
1057,国宾00590841,1,0
1058,国宾00774255,20,3
1059,煦溪水,18,3
1060,国宾00778913,8,3
1061,鑫儿鑫儿鑫儿,6,3
1062,国宾00572654,5,1
1063,国宾00223534,7,1
1064,永恒love丹,16,0
1065,来宾00801453,19,3
1066,国宾00815030,7,3
1067,国宾00426081,14,2
1068,牛b不闪闪,11,1
1069,杨love张,12,2
1070,国宾00776273,7,3
1071,忘情森吧舞r,19,1
1072,纯情的T小蝶,10,3
1073,国宾00713042,13,0
1074,花泽类M,14,1
1075,国宾00763911,8,0
1076,国宾00212235,20,3
1077,雪加雨,16,4
1078,来宾00799088,16,2
1079,跟tm谁俩呢,11,0
1080,国宾00543681,8,3
1081,国宾00758572,5,2
1082,国宾00796520,18,2
1083,国宾00622304,17,1
1084,爱你的条件,11,2
1085,爱你非儿戏,2,2
1086,A喵了个咪,14,2
1087,花V筱文,6,2
1088,鸿鑫制衣,5,2
1089,大脸盘子M,5,3
1090,国宾00788373,11,1
1091,陆语业fiona,18,1
1092,国宾00435240,16,4
1093,国宾00648639,4,2
1094,花百万M,10,0
1095,奇葩vs小伙,17,0
1096,明知两王也T,14,4
1097,国宾00582680,19,4
1098,血狼人,13,2
1099,胡了单吊,7,1
1100,护肤面膜,13,1
1101,花到不得,6,0
1102,来宾00799668,9,1
1103,寻常人,4,3
1104,国宾00801603,14,3
1105,china清风,17,3
1106,国宾00346018,3,4
1107,国宾00681530,4,0
1108,迪欧vv,9,1
1109,国宾00700254,10,2
1110,闫宇航,2,0
1111,国宾00755614,20,1
1112,国宾00792995,14,3
1113,国宾00501184,7,1
1114,花花的虫,15,4
1115,国宾00754312,10,3
1116,国宾00352501,4,2
1117,国宾00452431,10,4
1118,国宾00670501,17,0
1119,国宾00623002,12,2
1120,国宾00717279,9,1
1121,赌vv神,10,3
1122,国宾00770560,2,4
1123,Candy惠晗,17,3
1124,臭臭cc,20,3
1125,国宾00586044,11,0
1126,Alone一宝,11,3
1127,国宾00784565,3,0
1128,国宾00807411,20,2
1129,爱你就伤你,11,4
1130,国宾00642073,12,1
1131,国宾00790732,6,1
1132,国宾00701929,13,0
1133,国宾00686399,7,0
1134,跟我走i,13,2
1135,岩岩米,6,1
1136,来宾00788499,8,1
1137,爱你没有错,19,1
1138,国宾00615723,13,2
1139,国宾00782016,7,3
1140,国宾00461581,15,3
1141,幸福的肖老大,11,1
1142,隔心岛z,10,2
1143,战争ZD玫瑰,16,4
1144,国宾00483205,9,4
1145,国宾00666545,14,3
1146,花鲤不言,5,2
1147,国宾00516310,2,1
1148,杨宝儿,15,1
1149,花香漫步,8,1
1150,国宾00793035,13,4
1151,国宾00629538,20,3
1152,华下旭少,2,2
1153,来宾00806105,8,4
1154,国宾00813422,11,2
1155,国宾00746030,12,0
1156,国宾00812987,5,1
1157,麻辣烫ok,6,1
1158,A谈笑风生,17,1
1159,国宾00634465,4,3
1160,爱你在此生,8,4
1161,国宾00652126,6,2
1162,国宾00626202,7,1
1163,国宾00789093,17,2
1164,柯南CarryAyu,3,0
1165,性感的水舞裙,1,1
1166,M大湿胸M,17,2
1167,国宾00438109,18,2
1168,国宾00651058,20,1
1169,杨旮旯,6,3
1170,国宾00675911,6,4
1171,国宾00805533,14,3
1172,国宾00691284,8,3
1173,逢T必赢,20,3
1174,国宾00658989,14,1
1175,坏人一个,8,4
1176,欢乐豆腐,19,3
1177,国宾00485788,10,2
1178,休息不忘娱乐,10,2
1179,安徒生ii,19,1
1180,国宾00813958,4,4
1181,国宾00807887,1,0
1182,国宾00769788,14,2
1183,Rr久爱,4,2
1184,国宾00613860,19,0
1185,国宾00737857,20,2
1186,国宾00709471,4,3
1187,幻影长空,16,1
1188,炸你行不行T,9,4
1189,国宾00668186,16,1
1190,虾米yy,10,3
1191,国宾00627916,4,4
1192,爱拼才会赢,7,3
1193,国宾00435722,2,1
1194,神经小君君T,8,0
1195,国宾00370317,14,2
1196,爱如指尖沙x,6,2
1197,国宾00581564,7,1
1198,国宾00772188,13,2
1199,快准备MB,6,1
1200,请叫我暖男T,11,1
1201,逗你玩Z,15,4
1202,旋转吧小陀螺,20,1
1203,诺T玛莎拉蒂,13,4
1204,一念花开K,7,2
1205,国宾00737766,14,3
1206,国宾00604797,9,2
1207,国宾00121660,3,4
1208,国宾00700498,7,1
1209,爱情的信徒,4,1
1210,丹妹er,16,0
1211,来宾00803946,10,2
1212,国宾00514190,18,3
1213,爱情交白卷,20,4
1214,小cc宝,4,1
1215,国宾00550530,2,1
1216,柳Da乖,14,3
1217,国宾00770038,3,4
1218,国宾00480949,12,1
1219,姚语芙,9,3
1220,来宾00810692,8,3
1221,张半仙we,12,3
1222,椰海韵,15,2
1223,逗比M程,18,3
1224,国宾00764051,4,1
1225,火柴强子,7,4
1226,国宾00529321,20,2
1227,国宾00807442,19,3
1228,爱伟love,13,1
1229,国宾00757034,6,2
1230,国宾00834110,10,3
1231,火星来的,12,1
1232,丫头不想长大,7,1
1233,火影忍者,20,4
1234,国宾00713451,16,2
1235,国宾00734247,2,2
1236,叶倾念,20,1
1237,骑行者Vs,11,1
1238,国宾00526243,15,0
1239,柠檬Lemon,2,3
1240,M小鼻噶,1,3
1241,国宾00658436,20,1
1242,国宾00722787,20,2
1243,一说如果T,15,4
1244,国宾00769708,13,2
1245,叶子野,20,1
1246,丹顶鹤A,3,0
1247,破晓de梦,14,2
1248,夜凄美,19,3
1249,国宾00440295,11,0
1250,国宾00588589,18,0
1251,国宾00797742,15,4
1252,练霓裳qq,19,4
1253,一般小伙T,10,2
1254,国宾00678597,11,4
1255,涛哥yy,3,0
1256,国宾00795618,2,2
1257,国宾00791420,20,4
1258,蓝宝石ss,15,1
1259,国宾00630709,12,2
1260,机灵小孩,14,3
1261,国宾00714134,13,4
1262,极速飞越,20,3
1263,来宾00779205,4,0
1264,国宾00675478,19,1
1265,国宾00744283,20,2
1266,别动我NV神,2,2
1267,来宾00811086,11,1
1268,国宾00631970,5,2
1269,我的女友lw,13,1
1270,丨小L乐T,7,4
1271,一袋甜椒c,18,4
1272,国宾00545693,7,4
1273,国宾00591504,18,4
1274,厌倦灯红酒绿,11,3
1275,爱情理疗师,18,2
1276,国宾00721340,16,4
1277,国宾00743422,4,3
1278,国宾00791781,14,3
1279,国宾00658496,14,3
1280,国宾00725062,7,1
1281,寂寞烟圈,14,2
1282,一生爱,6,2
1283,国宾00773996,8,3
1284,国宾00729803,20,2
1285,来宾00796113,19,1
1286,国宾00443841,11,4
1287,国宾00782432,18,4
1288,国宾00834225,14,3
1289,羊羊羊小绵羊,15,1
1290,缨子春,14,1
1291,赢八万,2,2
1292,大果冻a,8,0
1293,国宾00779209,15,1
1294,国宾00763619,8,2
1295,C战神C,15,1
1296,幺神来了必胜,12,1
1297,丨夜魅丨T,10,3
1298,国宾00734507,16,0
1299,国宾00232146,6,3
1300,L莫L小龙,2,3
1301,国宾00358039,11,4
1302,国宾00623675,9,0
1303,国宾00754003,10,3
1304,赢天下,2,0
1305,国宾00595909,20,1
1306,樱桃大丸子M,14,1
1307,国宾00773919,10,4
1308,雾雨魔理沙T,4,2
1309,詹鲁姆T卡特,9,0
1310,来宾00793703,14,1
1311,大Z王者,20,2
1312,烟雨紫竹林M,16,3
1313,国宾00637656,1,1
1314,国宾00606044,17,2
1315,又赢了,20,3
1316,国宾00418690,10,4
1317,国宾00709279,6,3
1318,幺王之皇上皇,19,1
1319,T冰糖葫芦,17,3
1320,国宾00741251,6,4
1321,来宾00777455,20,1
1322,左岸de幸福,18,4
1323,y雨鑫x,10,3
1324,国宾00379414,15,1
1325,假期别走,6,3
1326,国宾00787521,4,1
1327,暴走小枕头g,19,1
1328,国宾00814885,3,3
1329,我会一直在M,19,1
1330,春之城hh,2,1
1331,国宾00691441,11,0
1332,国宾00426058,11,4
1333,于天哲,18,4
1334,国宾00643743,18,2
1335,于志刚,16,2
1336,国宾00619480,6,3
1337,国宾00764358,19,2
1338,国宾00191664,15,2
1339,国宾00639728,17,0
1340,冰凌花B,18,4
1341,大雪M轻飘飘,17,3
1342,国宾00304230,13,1
1343,别絮叨o,11,1
1344,国宾00772926,14,2
1345,国宾00716104,17,3
1346,国宾00684833,2,1
1347,国宾00814118,20,3
1348,妖魂从出江湖,11,0
1349,姚国涛狗篮子,14,1
1350,婷a老o大,15,1
1351,国宾00246134,14,1
1352,国宾00776584,3,2
1353,国宾00730177,12,2
1354,要有技术含量,10,3
1355,爱情修正液,15,3
1356,你冰gg,2,1
1357,国宾00759816,3,1
1358,国宾00814948,8,0
1359,大旭哥TT,11,4
1360,叶良辰就是我,12,3
1361,国宾00756453,4,1
1362,国宾00735827,2,1
1363,价格杠杆,17,0
1364,国宾00644521,18,3
1365,国宾00767570,16,2
1366,国宾00802195,8,1
1367,国宾00669832,12,4
1368,国宾00618402,14,3
1369,国宾00742237,14,2
1370,语忘言,6,2
1371,国宾00632876,9,2
1372,爱情饮水机,3,3
1373,国宾00613987,8,2
1374,玉石粒,12,1
1375,国宾00609151,13,0
1376,国宾00733560,6,1
1377,一哎呦我去一,13,3
1378,国宾00730950,7,0
1379,国宾00441078,13,0
1380,V狮子座V,5,0
1381,一大笑江湖一,3,4
1382,国宾00715302,1,4
1383,大飞心痛T,16,2
1384,一代妖神阿政,14,3
1385,来宾00782057,20,3
1386,爱让我心醉,19,2
1387,国宾00770492,15,2
1388,爱上打扫打,15,3
1389,坚守最后,11,1
1390,国宾00709211,7,3
1391,国宾00646173,1,4
1392,国宾00479132,5,3
1393,爱上拉丁鞋,20,4
1394,爱上了喵叉,5,1
1395,国宾00766971,2,0
1396,国宾00783199,13,2
1397,T勾心斗角,19,0
1398,心冷致命a,13,1
1399,袁向真,10,2
1400,美宝宝na,9,4
1401,一朵儿太阳花,13,4
1402,国宾00832476,18,4
1403,别扯淡OK,9,3
1404,国宾00770699,10,0
1405,平平淡淡c,2,3
1406,矫情英子,18,1
1407,o田小田o,3,1
1408,国宾00722748,2,2
1409,L飙大神L,18,4
1410,国宾00610885,3,4
1411,国宾00801051,18,4
1412,国宾00808620,4,1
1413,国宾00767490,2,0
1414,爱上瘦女孩,16,3
1415,爱上水瓶女,14,3
1416,阿政呦M,3,1
1417,国宾00634454,12,0
1418,来宾00828852,9,3
1419,国宾00778025,10,3
1420,国宾00620421,19,3
1421,JMEMORYR,4,4
1422,国宾00741801,5,1
1423,yi嗰人怀念,9,3
1424,少年messi,9,0
1425,国宾00190970,20,0
1426,z就是壳,9,1
1427,国宾00702593,4,4
1428,国宾00781697,14,4
1429,Miss张Evey,18,3
1430,WJ狂狼,5,2
1431,国宾00740999,10,3
1432,国宾00714406,13,0
1433,WA斌子,16,4
1434,一个有故事人,20,2
1435,国宾00500686,13,3
1436,爱上我仿佛,2,3
1437,国宾00443660,9,0
1438,国宾00782000,20,3
1439,国宾00815452,13,4
1440,国宾00648898,1,2
1441,奔三的男人i,7,3
1442,薄荷味的笑x,11,2
1443,金刚狼伯,14,4
1444,金如风云,13,3
1445,源动力,5,2
1446,S风速S,3,0
1447,国宾00753790,18,2
1448,国宾00486689,19,2
1449,国宾00691701,4,1
1450,爱上鲜果粒,19,4
1451,从一而终T,20,4
1452,国宾00782612,8,2
1453,Ms我心大,16,3
1454,国宾00789286,16,1
1455,月牙儿,9,1
1456,经常打牌,17,1
1457,小越先生L,15,4
1458,国宾00798447,4,4
1459,国宾00768897,13,2
1460,国宾00578444,13,4
1461,x一支烟,3,0
1462,国宾00653893,17,2
1463,来宾00799062,13,3
1464,一路辛苦走去,15,2
1465,国宾00409457,14,3
1466,爱上小乌龟,4,1
1467,云昊天,18,1
1468,国宾00607938,16,4
1469,贼傲天,6,1
1470,一名吃瓜群众,20,1
1471,o把持不住o,2,4
1472,T老兵T,10,2
1473,国宾00496707,1,2
1474,静止的水,17,3
1475,爱拼才会赢I,18,2
1476,九华山中,17,4
1477,E叶秋天来了,12,4
1478,国宾00681599,9,3
1479,国宾00613361,8,1
1480,九台喜哥,13,2
1481,国宾00449935,20,4
1482,斋之瑶,18,1
1483,国宾00763806,10,2
1484,九月天空,15,3
1485,国宾00814972,4,3
1486,国宾00704287,13,4
1487,国宾00571582,11,1
1488,茵茵mj,16,4
1489,翟玉鸥,4,2
1490,国宾00652649,13,4
1491,张艾君,13,1
1492,国宾00793566,6,2
1493,国宾00719347,8,2
1494,国宾00625297,3,1
1495,国宾00783701,8,1
1496,张宝宝,13,1
1497,国宾00577872,17,1
1498,国宾00649884,6,3
1499,长颈鹿i,19,1
1500,长白山M,14,2
1501,国宾00611773,13,2
1502,国宾00606324,2,3
1503,来宾00766262,9,4
1504,Ai小清清,17,2
1505,爱神也失恋,16,3
1506,国宾00703588,10,3
1507,爱生活的偶,20,2
1508,国宾00782408,8,1
1509,国宾00536259,2,0
1510,绝世筱天,2,2
1511,来宾00770183,3,4
1512,一生一世的情,9,0
1513,国宾00671791,16,1
1514,防弹武僧fhhg,12,3
1515,国宾00744866,9,1
1516,国宾00678036,10,0
1517,国宾00812281,20,3
1518,国宾00675699,10,1
1519,一套技能带走,10,3
1520,依然爱你宝贝,18,3
1521,张皓元,20,3
1522,on戒爱,8,1
1523,依然乐在其中,19,1
1524,开郎的我,7,1
1525,oi源泽,16,1
1526,来宾00778645,20,1
1527,张和明,10,2
1528,国宾00781916,9,2
1529,ai小黄人,16,2
1530,爱踢就踢呗,10,1
1531,爱田守望者,1,2
1532,普罗米修斯R,16,1
1533,国宾00573573,14,0
1534,来宾00775500,4,1
1535,国宾00783277,14,1
1536,国宾00518526,18,2
1537,国宾00706451,7,3
1538,国宾00728970,20,4
1539,国宾00831596,19,3
1540,国宾00793976,15,0
1541,国宾00645203,14,1
1542,张小饭,7,2
1543,国宾00735303,10,3
1544,国宾00508157,7,1
1545,国宾00468161,3,0
1546,快乐平安zZ,16,3
1547,金灿灿cc,9,2
1548,无敌L逗比,17,2
1549,来宾00830722,16,4
1550,国宾00525156,10,1
1551,A寒冰冷雪A,20,1
1552,国宾00592957,9,0
1553,金刚BB,4,1
1554,国宾00671884,14,0
1555,国宾00607617,14,3
1556,仙人掌zy,9,2
1557,张小姐,20,1
1558,国宾00788961,14,2
1559,开心快乐,9,2
1560,国宾00813574,20,3
1561,开心网站,14,3
1562,开心一刻,10,0
1563,凯文乐夫,6,3
1564,来宾00770811,19,0
1565,.新画面.,16,1
1566,国宾00809886,3,2
1567,国宾00671038,6,0
1568,国宾00830933,19,4
1569,张轩瑀,14,3
1570,张媛媛,15,1
1571,爱汪汪的猫,12,4
1572,国宾00386016,12,3
1573,国宾00321982,4,4
1574,国宾00775243,2,2
1575,兔儿精oO,18,0
1576,国宾00423240,3,3
1577,国宾00501025,20,1
1578,国宾00752631,11,2
1579,看见放下,13,3
1580,国宾00678202,12,2
1581,国宾00463647,20,2
1582,国宾00442009,1,0
1583,国宾00419022,5,4
1584,不再联系i,2,1
1585,国宾00650507,12,2
1586,国宾00344713,12,1
1587,保持A的军姿,4,2
1588,国宾00638324,4,2
1589,国宾00623337,7,3
1590,爱我更爱你,20,1
1591,国宾00701344,1,3
1592,爱我所爱周,5,2
1593,洋北鼻i,18,3
1594,国宾00508263,13,1
1595,空间考核,11,3
1596,寇氏阿宝,16,4
1597,国宾00774006,4,1
1598,大亨VS赌鬼,10,0
1599,国宾00470088,20,4
1600,国宾00764990,7,2
1601,国宾00537474,16,4
1602,回忆情断处R,16,4
1603,国宾00740928,10,4
1604,国宾00567603,3,3
1605,大富翁gg,2,1
1606,国宾00473240,1,3
1607,叫我T阿微,18,2
1608,少年如歌g,8,3
1609,国宾00112368,3,4
1610,国宾00794875,9,3
1611,国宾00648875,15,3
1612,国宾00733234,7,1
1613,国宾00828965,8,0
1614,国宾00747749,19,1
1615,国宾00797859,11,1
1616,赵晓波,17,1
1617,国宾00706715,12,3
1618,国宾00753665,8,1
1619,K纯帅M,20,3
1620,男神vs宇哥,20,2
1621,爱笑的巫婆,20,0
1622,Marlboro李,15,4
1623,国宾00732967,14,3
1624,G果园Y,3,2
1625,赢我和你玩命,15,4
1626,国宾00631923,3,3
1627,来宾00772782,8,3
1628,国宾00742908,11,2
1629,国宾00619386,9,2
1630,国宾00773642,10,3
1631,国宾00760160,5,2
1632,大侠拎壶冲R,11,1
1633,你不懂我aaaa,20,3
1634,这些年,6,1
1635,你是阳光cc,8,0
1636,国宾00777605,3,3
1637,影帝的小金人,7,3
1638,w青苹果w,8,4
1639,哟小丫头片子,15,2
1640,国宾00635157,11,2
1641,郑国庆,11,2
1642,爱心的宝儿,20,2
1643,n曲痘痘,5,3
1644,国宾00658600,6,3
1645,国宾00630640,15,2
1646,狂风暴雨,14,3
1647,国宾00491149,4,1
1648,国宾00615407,19,3
1649,国宾00777186,2,2
1650,国宾00481486,11,3
1651,郑一思,8,2
1652,K土豪金,7,3
1653,永恒战神腾少,10,3
1654,来宾00833807,9,3
1655,国宾00621105,11,1
1656,K么么哒,10,2
1657,国宾00514327,14,1
1658,国宾00699620,20,3
1659,中铁栋,19,1
1660,中途岛,12,0
1661,冬雷一P死你,20,3
1662,宝马li,8,1
1663,国宾00815072,16,2
1664,日落黄昏T,17,2
1665,国宾00668286,17,2
1666,国宾00603020,12,2
1667,国宾00673610,6,3
1668,钟立军,15,1
1669,国宾00593825,18,1
1670,国宾00514619,20,3
1671,国宾00610492,8,1
1672,国宾00614360,19,3
1673,shina小时候,7,3
1674,国宾00458383,20,2
1675,国宾00801923,16,1
1676,爱心飞机头,18,3
1677,非常地哇塞i,20,4
1678,爱心无限好,8,2
1679,国宾00791647,20,4
1680,国宾00550168,14,4
1681,国宾00807215,9,4
1682,国宾00544615,20,3
1683,国宾00782554,15,0
1684,大伟AB,14,0
1685,国宾00771681,3,0
1686,感觉我要飞R,13,4
1687,哥R神话依旧,15,4
1688,勇往直前的鱼,14,2
1689,国宾00493447,4,3
1690,国宾00789307,16,3
1691,国宾00196213,9,1
1692,V小石头v,17,3
1693,用泪感觉心痛,14,4
1694,国宾00507589,18,2
1695,种友瑶,7,0
1696,重炮手,2,2
1697,国宾00548962,5,3
1698,逗你玩Oo,20,2
1699,国宾00804818,5,2
1700,国宾00675089,20,0
1701,国宾00774784,10,4
1702,国宾00758922,6,2
1703,朱兴全,20,1
1704,国宾00500423,3,1
1705,国宾00689042,14,2
1706,冷残夜魅,20,0
1707,朱雪姣,14,2
1708,国宾00379601,12,1
1709,国宾00625752,17,3
1710,国宾00694108,7,2
1711,国宾00812297,5,3
1712,有故事的人么,2,3
1713,有没有搞错呀,12,2
1714,国宾00733175,14,3
1715,国民女朋友i,11,3
1716,有木有美女吗,14,1
1717,竺依柔,16,0
1718,小天天A,17,4
1719,国宾00744428,16,1
1720,国宾00759962,6,2
1721,主地斗,2,2
1722,老妖精ds,13,3
1723,狠角色K楠楠,16,3
1724,国宾00793487,19,2
1725,愚蠢的老国梁,7,0
1726,泡大大oO,16,3
1727,国宾00795747,20,1
1728,莫大侠mo,11,3
1729,国宾00567376,14,2
1730,紫丁香,17,2
1731,国宾00807133,20,3
1732,国宾00755997,13,0
1733,小木g棍,20,0
1734,随机额King,3,2
1735,国宾00654058,11,4
1736,国宾00567771,5,2
1737,AA阿瑞,11,3
1738,国宾00668428,20,2
1739,国宾00668007,7,3
1740,国宾00774219,15,4
1741,疯狂人生told,10,3
1742,疯狂人生hhgg,4,2
1743,国宾00621044,8,3
1744,来宾00769099,9,1
1745,国宾00447074,1,3
1746,今天日了狗i,17,2
1747,国宾00466134,2,2
1748,北方T将军,18,3
1749,国宾00663746,2,4
1750,大小跑ii,14,2
1751,国宾00642419,2,4
1752,国宾00288426,8,0
1753,国宾00405295,14,1
1754,国宾00775618,3,1
1755,国宾00780046,12,1
1756,菊花朵朵开R,11,1
1757,国宾00712057,20,2
1758,国宾00509558,4,2
1759,国宾00768827,20,3
1760,小浪t子,6,3
1761,MC水观音,11,3
1762,国宾00679847,14,2
1763,国宾00811260,16,2
1764,寓言就是预言,17,2
1765,美妞Cecilia,17,0
1766,国宾00612460,13,0
1767,国宾00754275,13,0
1768,小逗比M,7,1
1769,国宾00451803,12,2
1770,凌先森KK,20,4
1771,爱一直闪亮,5,2
1772,国宾00708346,2,1
1773,国宾00720624,15,3
1774,哩咕哩咕,8,3
1775,立岩手机,16,3
1776,国宾00704209,12,2
1777,A雪子v,12,2
1778,国宾00788854,2,1
1779,国宾00457237,14,2
1780,国宾00771131,20,2
1781,国宾00722605,2,3
1782,国宾00655923,5,4
1783,运气不错哈哈,1,4
1784,国宾00790891,9,1
1785,印度阿三L,19,2
1786,国宾00776086,9,1
1787,国宾00674506,4,2
1788,国宾00693274,14,4
1789,萱宝love涛,15,1
1790,国宾00717889,15,0
1791,国宾00639691,8,3
1792,国宾00702671,13,1
1793,月姐vs海哥,19,1
1794,国宾00606769,16,0
1795,半俗不雅T,20,0
1796,国宾00810753,14,1
1797,长空断剑残雪,8,2
1798,国宾00799097,18,2
1799,国宾00793585,4,1
1800,国宾00712429,5,4
1801,来宾00784611,12,0
1802,国宾00220700,3,2
1803,爱在红尘中,20,1
1804,加q辽源的,9,1
1805,东沃de,3,1
1806,老大就j帅啊,8,1
1807,醉语浓,11,4
1808,静心rainbow,9,2
1809,爱你我的baby,9,4
1810,国宾00489364,20,3
1811,跪下K叫三哥,12,2
1812,灵魂帝君,19,3
1813,国宾00613410,16,4
1814,这么好久没有,1,3
1815,没谁勒feel,19,2
1816,o浪人五百o,8,3
1817,难忘旧时心U,3,3
1818,这是个帅小伙,11,0
1819,安国凤,5,2
1820,o麻坛高手o,9,0
1821,国宾00812078,12,1
1822,爱在深秋啊,11,2
1823,国宾00441582,19,0
1824,国宾00704399,2,2
1825,光头胖哥L,11,3
1826,国宾00720873,9,3
1827,国宾00731796,11,0
1828,A饭团儿,8,2
1829,国宾00740612,3,3
1830,国宾00783193,11,0
1831,霸气女,6,2
1832,国宾00655786,14,2
1833,国宾00636606,13,3
1834,国宾00808735,3,0
1835,无可替代wk,13,1
1836,逼迫症,15,3
1837,你爱我像谁R,15,1
1838,彼得兔,8,3
1839,国宾00796740,16,2
1840,国宾00690536,14,2
1841,珍惜索爱的人,2,1
1842,伊卡洛斯T,8,1
1843,领衔跑男,13,2
1844,国宾00441911,17,1
1845,国宾00683164,7,1
1846,云端ys,3,3
1847,冰红茶,11,1
1848,你什么牌面g,6,1
1849,爱之如生命,17,1
1850,爱之喜多狼,5,2
1851,爱至成伤饶,12,0
1852,国宾00782586,3,3
1853,国宾00744485,1,1
1854,爱自己的幸,15,3
1855,冰封D记忆,12,3
1856,国宾00378529,13,0
1857,Aita失之我心,6,0
1858,L超哥L,13,0
1859,国宾00596758,7,1
1860,奢侈RJ,12,1
1861,采飞扬,17,3
1862,至尊T刚哥,9,3
1863,国宾00815603,14,2
1864,J歇v斯底里,3,2
1865,国宾00480070,12,1
1866,杰ai雨,9,3
1867,国宾00614903,8,1
1868,郑家屯吴奇隆,14,1
1869,国宾00763406,5,3
1870,国宾00771672,19,4
1871,如影V随形,20,2
1872,刘住幸运,4,1
1873,留守幸福,19,3
1874,望秋颜z,20,3
1875,国宾00627670,6,3
1876,S海军S,6,1
1877,国宾00797541,11,1
1878,国宾00807835,16,4
1879,国宾00426336,5,3
1880,郑家屯吴彦祖,16,2
1881,护你周全T,6,3
1882,留香醉花,19,1
1883,花好月圆I,18,2
1884,老肥kk,12,1
1885,只刨幺别废话,4,3
1886,流砂年华,3,3
1887,嗳吃鱼的猫,20,0
1888,嗳嘿嘿鲁克,16,3
1889,暧昧的火花,14,0
1890,国宾00739447,1,3
1891,歪宝宝a,4,1
1892,常晓山,15,2
1893,国宾00749148,3,3
1894,超麻辣,8,4
1895,陈永峰,11,2
1896,p任我逍遥q,7,3
1897,东北vs妖精,4,3
1898,程桂琴,19,3
1899,林浩rr,20,1
1900,暧昧咖啡杯,6,2
1901,国宾00688982,8,3
1902,暧昧卡哇伊,20,3
1903,国宾00519253,15,4
1904,国宾00775856,12,1
1905,Ye色美,16,3
1906,芭比妹妹T,4,4
1907,国宾00672409,9,2
1908,懓情茉班莗,14,2
1909,国宾00746661,20,0
1910,果冻GG,2,4
1911,流水浮舟,4,1
1912,国宾00774374,16,4
1913,国宾00725482,5,2
1914,安安静静听,17,3
1915,安道格拉斯,11,1
1916,国宾00803612,20,2
1917,国宾00636471,10,2
1918,国宾00712791,5,4
1919,男神东东i,16,1
1920,只为赢点豆豆,2,2
1921,国宾00812314,3,1
1922,国宾00141603,9,1
1923,柳岸听雨,13,3
1924,国宾00791411,18,1
1925,动感光波bi,12,2
1926,来宾00770033,2,0
1927,忠于那抹纯白,12,2
1928,我有八个K,16,1
1929,国宾00105107,2,3
1930,a笑哈哈,20,2
1931,国宾00751333,17,1
1932,安德森大事,1,1
1933,国宾00768612,15,2
1934,国宾00801790,12,1
1935,国宾00657191,12,3
1936,国宾00807091,4,1
1937,国宾00791879,20,1
1938,国宾00384189,12,4
1939,大附翁,15,2
1940,安定撒打算,18,3
1941,丨七殇T,6,3
1942,龙哥麻圣,15,0
1943,安东都护府,17,3
1944,安凡微电子,18,3
1945,安徽芜湖人,18,4
1946,安吉拉宝宝,13,0
1947,国宾00602522,13,2
1948,国宾00426610,6,0
1949,国宾00415675,8,3
1950,我有八个Q,20,3
1951,国宾00764220,17,1
1952,国宾00745338,3,3
1953,我爱咪咪j,4,1
1954,我就是我Y,8,3
1955,丨缘分T,10,2
1956,磊哥cL,4,1
1957,国宾00549844,9,2
1958,国宾00587629,10,1
1959,国宾00575915,3,3
1960,自然卷天然黑,4,3
1961,s神彩飞扬s,11,1
1962,冷漠ab,20,1
1963,来宾00783683,11,4
1964,国宾00722036,12,2
1965,L冰雨丨,4,1
1966,大水货,2,2
1967,最温暖的牢房,20,1
1968,国宾00768919,12,4
1969,国宾00186194,17,0
1970,国宾00650005,10,3
1971,大嘴崔,18,3
1972,乱世巨星S,19,1
1973,来宾00793995,1,1
1974,国宾00658817,8,2
1975,国宾00745977,13,3
1976,国宾00766273,2,3
1977,国宾00767179,8,3
1978,你心上人L,14,2
1979,小雨LY,5,2
1980,谁用我ID了,20,1
1981,丁桂彬,6,1
1982,最最可爱的人,7,1
1983,国宾00766953,17,2
1984,安静的水珠,5,0
1985,来宾00783173,11,2
1986,T杨小邪,19,1
1987,VS止战之殇,20,2
1988,wo欧阳萱萱,6,1
1989,东秋烟,8,2
1990,走走路丢了鞋,20,4
1991,余生一个z,16,0
1992,国宾00493394,20,3
1993,国宾00637115,11,1
1994,安静的榆中,14,2
1995,国宾00609795,18,1
1996,我爱XQ,3,2
1997,Z随遇而安C,2,0
1998,罗马尼亚,20,3
1999,麻辣老太,12,0
2000,走出你的世界,18,3
2001,R丨良辰丨R,14,1
2002,东圣哥,15,2
2003,专治各种不服,12,3
2004,冬岩哥,13,0
2005,中国的chirs,8,1
2006,国宾00684244,2,3
2007,国宾00617453,4,4
2008,土地主S,13,2
2009,国宾00406549,11,0
2010,大T碴粥,14,1
2011,国宾00568974,18,3
2012,赵gucci先生,7,3
2013,o西门夜说o,20,0
2014,国宾00655945,20,2
2015,国宾00767775,15,2
2016,龟速船长f,17,2
2017,国宾00812496,19,3
2018,买不起买,4,4
2019,国宾00451659,20,0
2020,悍马AK,7,1
2021,国宾00777696,13,2
2022,田田yy,3,0
2023,国宾00449438,15,2
2024,安静的紫茗,6,2
2025,国宾00784015,3,2
2026,漫步潇洒,18,2
2027,入戏太深xx,20,3
2028,清清浅浅zz,3,2
2029,来宾00779203,15,3
2030,国宾00266081,7,2
2031,萌L夫T,6,3
2032,国宾00769478,9,2
2033,多赢钱,7,2
2034,国宾00768572,5,3
2035,大美美a,6,0
2036,国宾00802874,11,1
2037,零度mc,18,3
2038,国宾00721993,17,2
2039,美发幻影,7,1
2040,美丽百合,5,2
2041,美丽加芬,2,0
2042,国宾00542080,15,2
2043,樊小馋,6,1
2044,国宾00767233,3,1
2045,大美美P,19,3
2046,国宾00778974,4,2
2047,美丽李月,20,3
2048,国宾00570692,10,1
2049,国宾00663210,9,2
2050,国宾00542365,14,3
2051,舞动de灵魂,20,3
2052,国宾00697707,18,1
2053,国宾00801014,7,3
2054,国宾00653861,3,0
2055,来宾00831036,12,3
2056,魅力魔女,9,2
2057,猪一样的对友,10,2
2058,LL尛强,2,2
2059,国宾00401690,19,0
2060,国宾00769724,6,4
2061,来宾00785337,11,2
2062,国宾00738748,17,1
2063,国宾00786069,13,0
2064,来宾00778652,13,3
2065,国宾00565924,4,3
2066,飞舞凤,18,3
2067,国宾00664040,19,1
2068,J殇R那个她,18,1
2069,sermuyM染陌,12,3
2070,国宾00781913,4,2
2071,国宾00773246,4,2
2072,国宾00757868,8,0
2073,飞之天,7,3
2074,请你离开OK,11,1
2075,国宾00792897,11,1
2076,斐笑槐,20,2
2077,费绮兰,8,0
2078,国宾00720503,20,2
2079,国宾00708610,16,0
2080,安微谣宝宝,17,3
2081,国宾00494920,15,0
2082,安煦的天空,5,0
2083,RagingM冷爱,17,4
2084,粉帽子,8,2
2085,Kinly何琦琦,10,1
2086,L烟火L,5,3
2087,国宾00680983,12,2
2088,小C同学,3,2
2089,范T迪塞尔,1,3
2090,国宾00781172,15,4
2091,国宾00808558,11,3
2092,鞍山深沟寺,7,0
2093,国宾00759736,3,4
2094,只为红颜一笑,13,1
2095,国宾00661029,16,2
2096,国宾00677305,20,1
2097,魅舞馨儿,12,2
2098,国宾00661148,20,0
2099,国宾00765263,20,1
2100,来宾00773157,4,3
2101,国宾00525500,17,2
2102,L龙灾L,12,1
2103,国宾00734227,8,4
2104,张海日大傻叉,4,4
2105,国宾00743995,15,3
2106,风格化,3,1
2107,杂乱思绪无奈,6,2
2108,航神HS,2,1
2109,琳琳宝贝aa,12,0
2110,国宾00780975,13,1
2111,小T雨滴,7,2
2112,国宾00749202,17,1
2113,国宾00729797,20,2
2114,来宾00810202,12,2
2115,国宾00770229,18,0
2116,风雨李,13,3
2117,风雨铃,11,3
2118,国宾00503026,15,3
2119,国宾00524669,20,0
2120,物是人非q,17,2
2121,国宾00707420,20,3
2122,国宾00410733,11,1
2123,依然憔悴T,12,3
2124,冯国春,5,1
2125,国宾00806359,10,2
2126,国宾00765710,13,2
2127,昏天L黑地,13,0
2128,迷恋红色,8,2
2129,米基滕科,18,0
2130,雨中的红玫瑰,7,1
2131,妙语连珠,17,2
2132,小不s点,4,2
2133,洋洋LY,6,2
2134,蘑菇呃呃,19,3
2135,魔鬼乐章,17,3
2136,狐宇哥哥T,8,3
2137,国宾00782490,6,2
2138,国宾00781908,6,1
2139,符怜阳,10,3
2140,国宾00721394,12,3
2141,付东慧,10,2
2142,国宾00688077,13,2
2143,来宾00804221,14,3
2144,国宾00831429,9,1
2145,国宾00759826,4,3
2146,国宾00747302,10,2
2147,国宾00776130,18,3
2148,俺们很直溜,19,2
2149,俺们那疙瘩,1,0
2150,俺似耕田滴,8,4
2151,国宾00600477,14,3
2152,国宾00754426,3,3
2153,国宾00341748,16,2
2154,国宾00523924,8,2
2155,国宾00781532,10,3
2156,l风云l,4,3
2157,国宾00800063,10,0
2158,国宾00560015,17,0
2159,君子爱财oo,13,1
2160,国宾00643561,15,3
2161,国宾00834267,14,3
2162,Apple棉花糖,4,3
2163,纳兰英魂,18,1
2164,俺是吃素的,16,1
2165,国宾00715093,5,1
2166,高规格,15,2
2167,南宫洋洋L,20,4
2168,杰杰love红,18,1
2169,相拥昔瞳T,4,4
2170,琳娜oo,7,2
2171,相濡以沫T,20,0
2172,囡囡维维,20,1
2173,国宾00447910,20,4
2174,国宾00758586,16,4
2175,柠檬不萌l,20,4
2176,有老公就是好,10,0
2177,国宾00582227,10,1
2178,国宾00605281,17,1
2179,星辰L虹哥,15,2
2180,有点不会玩啊,1,2
2181,国宾00763013,2,3
2182,龚小初,3,3
2183,思念L恋月,9,1
2184,来宾00815971,14,2
2185,郭爱莹,3,1
2186,勇儿挚爱一生,11,3
2187,你田儿哥,5,2
2188,兔宝儿baby,10,1
2189,重新输入z,16,4
2190,国宾00481211,10,2
2191,俺是东北人,20,2
2192,国宾00687127,10,3
2193,小贝壳A,8,0
2194,国宾00775177,10,0
2195,赢上钱去旅游,4,1
2196,皇帝哥哥i,8,2
2197,狱火L狂人,6,1
2198,国宾00780959,6,1
2199,国宾00733431,10,2
2200,国宾00831373,11,1
2201,海敏哥,4,0
2202,国宾00776437,5,1
2203,国宾00515388,11,1
2204,国宾00497951,20,2
2205,俺是太上皇,9,1
2206,来宾00777984,3,1
2207,国宾00291733,5,1
2208,牛仔波妹,15,0
2209,小L财神,19,1
2210,俺是小地方,8,2
2211,小远forever,5,2
2212,国宾00715559,17,1
2213,国宾00471750,9,1
2214,将心比心z,13,1
2215,国宾00745187,16,2
2216,国宾00812442,20,3
2217,涵乔宝,14,3
2218,赢个沟满壕平,8,0
2219,俺是徐州人,17,1
2220,SKTmarin,20,4
2221,琳琳aa,12,3
2222,国宾00832892,15,1
2223,按不到叉叉,18,1
2224,国宾00514235,4,4
2225,国宾00710996,4,1
2226,国宾00743705,8,2
2227,国宾00689116,8,3
2228,国宾00770785,14,3
2229,来宾00799837,7,3
2230,韩胖胖,11,2
2231,珊瑚海c,14,0
2232,韩宇諰,14,4
2233,国宾00535991,7,3
2234,小破孩L,11,1
2235,牛仔柿子,13,2
2236,国宾00644865,12,1
2237,小铃铛C,2,2
2238,赢不了不嗨森,10,2
2239,小情歌e,3,2
2240,小嘚瑟T,5,3
2241,农村范儿,13,2
2242,国宾00799667,10,3
2243,浓情龙龙,8,1
2244,神会o大三,11,2
2245,国宾00691061,12,2
2246,努力割舍,3,1
2247,国宾00787586,20,1
2248,国宾00680116,8,3
2249,一只麻雀大王,2,1
2250,何忠刚,2,1
2251,暖妹儿诺,3,1
2252,国宾00712058,8,3
2253,国宾00710902,13,0
2254,国宾00618339,17,3
2255,国宾00601695,4,3
2256,欧阳沛儿,11,3
2257,国宾00815122,19,2
2258,国宾00437576,2,3
2259,黑太猫,13,0
2260,神武L杀戮,19,2
2261,飞机师T,13,1
2262,按时点确定,7,1
2263,勇敢面对a,14,3
2264,国宾00769218,8,3
2265,国宾00524875,17,0
2266,案发目击者,19,2
2267,来宾00796802,3,2
2268,来宾00781363,16,2
2269,国宾00751498,12,1
2270,国宾00659227,10,3
2271,痞子老王,14,3
2272,暗黑秋波眼,19,3
2273,国宾00682493,11,4
2274,王三圈o,16,0
2275,国宾00799190,6,1
2276,国宾00517892,3,2
2277,不服来T,13,2
2278,国宾00353272,17,2
2279,漂泊浪子,5,2
2280,国宾00684148,11,1
2281,暗黑三打哈,20,2
2282,国宾00768874,9,0
2283,国宾00804790,20,3
2284,不倒翁y,16,3
2285,飘风落叶,18,4
2286,一人我饮酒醉,2,2
2287,暗黑洫修罗,13,1
2288,暗梅幽闻花,17,2
2289,国宾00775977,5,4
2290,飘浮的梦,14,4
2291,国宾00782497,12,0
2292,国宾00701337,19,1
2293,国宾00769851,18,0
2294,国宾00448451,11,3
2295,国宾00752244,20,2
2296,国宾00684492,9,3
2297,国宾00805929,2,4
2298,暗香浮地动,3,1
2299,国宾00765787,8,0
2300,一骑笑看红尘,11,3
2301,国宾00594359,7,3
2302,乒乓棋手,4,1
2303,子涵LARA,18,1
2304,国宾00831523,18,1
2305,平安是幅,13,4
2306,灰太狼,11,3
2307,一辈子我爱你,13,1
2308,国宾00732700,11,1
2309,国宾00520340,15,1
2310,国宾00798080,1,0
2311,国宾00829716,20,4
2312,国宾00408047,20,1
2313,姚宝宝我爱你,15,0
2314,暗香盈袖秀,14,2
2315,国宾00648373,6,4
2316,姬以彤,5,1
2317,暗夜的红眼,5,3
2318,国宾00755785,11,1
2319,水蜜桃a,19,3
2320,幺神就是本人,20,3
2321,平凡至极,5,3
2322,笑看人生A,20,2
2323,阳光亿城物业,8,3
2324,阳光下的微笑,16,2
2325,国宾00518608,15,0
2326,国宾00609181,8,3
2327,暗夜独舞者,12,2
2328,扑克大仙,17,3
2329,国宾00829043,5,1
2330,国宾00739869,15,3
2331,国宾00716507,17,1
2332,暗夜过路人,20,3
2333,国宾00708115,9,0
2334,七色彩莲,5,0
2335,逢刨L必赢,16,2
2336,凌乱的眸T,3,3
2337,国宾00787979,5,3
2338,国宾00731813,15,3
2339,帅帅forever,20,1
2340,国宾00537992,12,0
2341,海纳T百川,20,1
2342,颜值余额不足,3,2
2343,国宾00542712,16,3
2344,寻找梦中情人,7,2
2345,国宾00772590,8,1
2346,浪荡成性i,16,1
2347,V小男人,16,3
2348,休闲斗地主了,11,3
2349,国宾00448178,5,3
2350,国宾00781846,10,1
2351,幸福每一天霞,15,1
2352,靳灵波,6,4
2353,诺丨L凡尘,3,2
2354,国宾00728218,15,1
2355,国宾00765633,7,4
2356,暗夜小女人,7,3
2357,国宾00779422,12,2
2358,国宾00833946,18,3
2359,暗影抹煞者,13,3
2360,暗影追逐者,12,4
2361,国宾00496618,19,3
2362,国宾00724765,18,3
2363,叫我K哥,13,3
2364,国宾00613844,7,4
2365,幸福的小朵朵,19,3
2366,国宾00617451,9,2
2367,幸福的李秀清,10,3
2368,凯蒂霏,1,1
2369,国宾00776049,16,1
2370,国宾00752113,13,1
2371,国宾00656685,16,0
2372,凹凸小A,2,0
2373,国宾00652789,2,1
2374,国宾00425765,1,3
2375,琉璃T花烛,19,1
2376,国宾00743052,12,0
2377,幸福安康L,1,2
2378,新西兰吐鲁番,9,0
2379,国宾00558119,19,1
2380,新的人新的爱,6,3
2381,国宾00655644,13,4
2382,可凌晴,7,3
2383,冯T宝宝,13,2
2384,国宾00542534,4,1
2385,国宾00314622,20,0
2386,国宾00378381,11,3
2387,祈祷李雷,11,0
2388,骑驴逛街,2,1
2389,黯夜也不错,14,2
2390,肮脏的一打,3,0
2391,狂妄哥,11,0
2392,骑蚊子飞,7,1
2393,国宾00669524,18,2
2394,蛊惑人心v,11,4
2395,凹凸曼哦哦,20,2
2396,国宾00764793,9,3
2397,懒虫儿,3,1
2398,国宾00831399,7,1
2399,敖德的艾斯,6,1
2400,国宾00694550,8,2
2401,邢大大T,20,1
2402,小竹竹我媳妇,13,4
2403,嗷嗷嗷慢慢,7,0
2404,国宾00557216,14,3
2405,国宾00492045,10,1
2406,熬夜小王子,5,4
2407,小小小小柚子,15,1
2408,猪猪猪猪T,20,3
2409,小小小麻雀君,15,1
2410,国宾00696675,12,2
2411,国宾00632312,13,4
2412,国宾00664323,10,0
2413,国宾00173621,10,2
2414,翱翔的果果,20,2
2415,达芬奇i,7,3
2416,国宾00788969,13,2
2417,国宾00211225,4,4
2418,国宾00697328,20,2
2419,国宾00727997,9,2
2420,国宾00637103,2,1
2421,肉嘟嘟A,3,3
2422,国宾00606705,7,1
2423,国宾00757309,5,0
2424,傲骄天然攻,1,0
2425,国宾00300575,12,2
2426,国宾00758218,14,4
2427,小丸子萌萌嗒,12,2
2428,冷月情,18,3
2429,傲气的梦靥,13,1
2430,来宾00810787,10,0
2431,国宾00540492,8,3
2432,朱先森T,12,1
2433,麒麟赌神,15,1
2434,国宾00750914,18,4
2435,启辰先生,3,1
2436,国宾00602858,18,2
2437,浅笑自己,2,0
2438,随意king,17,3
2439,奥德赛倒萨,15,1
2440,国宾00709854,5,1
2441,国宾00146544,19,2
2442,离开了,19,1
2443,淡茉L初夏,15,4
2444,慊慊宝贝,16,0
2445,国宾00662992,18,2
2446,国宾00529873,17,3
2447,国宾00485586,13,1
2448,青春至上,10,2
2449,轻巧陈重,11,2
2450,淡淡e忧伤,4,1
2451,国宾00756968,5,4
2452,随风t微笑,13,1
2453,李地寺,8,4
2454,国宾00461723,20,4
2455,喜剧之王L,18,1
2456,李航全,9,1
2457,李和生,7,3
2458,国宾00128206,7,3
2459,国宾00795492,14,2
2460,小兔子乖乖您,9,4
2461,江湖老k,20,1
2462,姜小黑M,13,3
2463,国宾00605261,3,1
2464,国宾00645763,17,2
2465,李未末,14,4
2466,国宾00443004,19,1
2467,奥特曼献身,12,1
2468,奥特曼艺术,20,2
2469,国宾00765917,5,2
2470,国宾00592667,4,3
2471,澳门回来的,4,0
2472,八八小骨头,6,2
2473,国宾00766610,17,3
2474,国宾00735752,5,2
2475,国宾00640301,13,4
2476,来宾00781891,9,1
2477,晶晶best,6,2
2478,国宾00791607,3,0
2479,国宾00634283,13,2
2480,清梅挽雪,17,2
2481,国宾00270417,4,2
2482,国宾00725070,9,1
2483,国宾00599367,14,2
2484,国宾00376312,18,2
2485,清水之鱼,10,3
2486,国宾00666148,13,2
2487,国宾00663007,16,1
2488,国宾00763833,18,2
2489,寻L觅者,1,2
2490,国宾00367917,11,3
2491,情义楠哥,11,3
2492,紫气V东来,2,3
2493,辉煌L小雨,15,1
2494,国宾00315872,9,1
2495,国宾00780880,17,1
2496,国宾00764795,17,3
2497,八十米高度,13,1
2498,八四不要枪,14,1
2499,董先森a,11,4
2500,秋水依然,9,3
2501,国宾00543009,13,3
2502,爱媛yuan,18,1
2503,国宾00796469,10,2
2504,全能宝宝,12,3
2505,国宾00645950,12,0
2506,国宾00739595,4,1
2507,国宾00739956,2,2
2508,仁义为人,17,4
2509,国宾00642538,17,3
2510,麦兜兜T,14,1
2511,国宾00739966,19,1
2512,小叮当叮当当,13,0
2513,国宾00441551,5,1
2514,国宾00300536,5,0
2515,释迦摩尼T,11,2
2516,国宾00380796,17,0
2517,国宾00563484,14,0
2518,如风网事,15,1
2519,装酷T小孩,12,1
2520,来宾00831229,15,3
2521,国宾00755386,16,2
2522,国宾00775980,14,1
2523,八月的大水,3,0
2524,国宾00832604,11,3
2525,国宾00626573,6,4
2526,像太阳般耀眼,14,3
2527,巴拉拉小妞,12,3
2528,国宾00688100,18,3
2529,巴黎小任性,11,2
2530,像风一样女子,1,2
2531,国宾00549404,11,2
2532,国宾00775210,11,3
2533,国宾00551275,3,1
2534,国宾00743844,18,0
2535,国宾00650013,1,2
2536,想要成人的狼,12,1
2537,利剑斩,14,3
2538,想到做到得到,15,2
2539,瑞瑞欧巴,10,1
2540,国宾00716820,5,0
2541,恋桔子,12,3
2542,国宾00782249,6,2
2543,国宾00783447,13,3
2544,来宾00775877,6,0
2545,国宾00552891,10,3
2546,国宾00517189,12,3
2547,国宾00772384,6,0
2548,你爽姐T,15,2
2549,隔壁T老王,15,1
2550,巴拿马裁缝,11,1
2551,国宾00651348,7,1
2552,国宾00605402,4,3
2553,冷寒冰b,15,4
2554,国宾00764357,5,1
2555,巴掌大的爱,16,0
2556,刘传志,4,4
2557,国宾00724159,13,1
2558,国宾00610223,12,4
2559,芭蕾跳舞鞋,17,4
2560,国宾00495824,12,2
2561,国宾00829930,6,3
2562,国宾00651755,12,2
2563,国宾00415029,20,1
2564,夏天的白衬衫,5,0
2565,国宾00655850,5,2
2566,国宾00811441,8,3
2567,来宾00791158,6,1
2568,隔壁老吴y,2,1
2569,国宾00811932,11,1
2570,国宾00640603,10,4
2571,国宾00716420,14,4
2572,国宾00660988,18,3
2573,洗剪吹万师傅,9,2
2574,国宾00787160,10,1
2575,习惯了不习惯,2,1
2576,稀理糊涂红尘,20,1
2577,国宾00655602,15,1
2578,国宾00740671,12,2
2579,魂飞魄散q,14,1
2580,国宾00688729,13,1
2581,拔呀拔萝卜,1,3
2582,国宾00798660,7,3
2583,国宾00786272,9,0
2584,国宾00744185,4,2
2585,梧桐山的隧道,13,3
2586,国宾00774143,11,1
2587,龙神月,17,1
2588,山高我为,10,3
2589,山脉丘陵,18,2
2590,国宾00695930,17,1
2591,国宾00709728,13,0
2592,国宾00801632,13,2
2593,国宾00638428,4,3
2594,摸扎算命T,20,3
2595,国宾00773853,11,2
2596,栾晓敏,11,2
2597,罗梓铭,19,0
2598,上海军工,4,2
2599,国宾00744680,20,1
2600,上善如水,12,3
2601,深井冰人,14,2
2602,来宾00830987,15,3
2603,国宾00770162,12,1
2604,国宾00705466,15,3
2605,国宾00305250,16,2
2606,国宾00620422,14,2
2607,神祈天奈,1,2
2608,国宾00707808,4,1
2609,国宾00581697,15,2
2610,把你宠坏了,1,4
2611,国宾00725906,20,0
2612,国宾00485037,16,1
2613,摸摸小手a,20,2
2614,盛世干元,12,0
2615,国宾00691162,19,1
2616,名工艺,17,4
2617,国宾00249406,9,4
2618,我这火暴脾气,12,3
2619,国宾00702273,13,4
2620,霸气的基地,9,1
2621,时光晓晓,3,2
2622,国宾00600744,5,1
2623,国宾00511378,18,2
2624,霸气十足东,14,3
2625,时间沙啊,16,3
2626,来宾00796883,14,3
2627,霸气霞嫂儿,2,4
2628,霸王亦无双,8,1
2629,掰玉米的熊,14,2
2630,国宾00806833,3,4
2631,皇阿玛Z,14,0
2632,国宾00547049,20,3
2633,国宾00622206,16,1
2634,国宾00616669,1,3
2635,国宾00617861,16,0
2636,狠任性S,15,4
2637,白白可爱多,5,3
2638,白白卫生巾,19,2
2639,国宾00767134,20,1
2640,白斑病不能,20,2
2641,来宾00790688,18,0
2642,国宾00798925,12,3
2643,国宾00615277,5,2
2644,国宾00717010,7,4
2645,国宾00716010,20,2
2646,国宾00694336,20,1
2647,国宾00450666,16,2
2648,国宾00725576,1,3
2649,我没有胖嘟嘟,16,1
2650,国宾00531075,15,2
2651,白愁飞的白,7,3
2652,国宾00650424,11,1
2653,我竟无言以对,9,3
2654,白狐子老头,15,1
2655,国宾00811401,3,1
2656,国宾00759765,13,0
2657,炽天使a,12,3
2658,白桦的天空,19,4
2659,国宾00813791,20,4
2660,国宾00728006,20,0
2661,国宾00709921,4,3
2662,国宾00602881,17,1
2663,白桦林传奇,12,0
2664,国宾00312942,6,2
2665,国宾00646357,12,0
2666,舒心游戏,3,4
2667,曙光商店,18,2
2668,国宾00532563,20,1
2669,白开水很谈,8,2
2670,国宾00811257,17,1
2671,双鹤超市,20,4
2672,国宾00694332,6,1
2673,国宾00671616,10,4
2674,谁能真心,11,4
2675,暖暖的心T,4,4
2676,国宾00433748,5,3
2677,水晶苹果,11,1
2678,白马甲王子,19,2
2679,国宾00718269,3,3
2680,国宾00568434,18,1
2681,歌者沈龙T,20,3
2682,白日门宝宝,5,4
2683,白色的冬季,2,2
2684,国宾00738854,15,4
2685,白色的花猫,8,0
2686,国宾00752347,12,1
2687,国宾00728024,18,1
2688,绝版A毒,11,3
2689,您满意,20,1
2690,国宾00551654,10,3
2691,司寇以丹,5,1
2692,国宾00815037,17,0
2693,白色的脚印,7,1
2694,莉莉lsun,4,1
2695,真好看a,17,3
2696,唯爱我家硕硕,12,4
2697,国宾00736256,6,1
2698,国宾00810807,15,1
2699,爱我冰m,17,1
2700,为谁强颜欢笑,20,3
2701,素蓝若雪,5,4
2702,随风而去,6,3
2703,瞅你像狗i,12,3
2704,嘞嗨宾兜T,20,1
2705,牛查查,4,2
2706,精神透红g,20,1
2707,玲玲LLZZ,10,2
2708,鹏飞飞,6,4
2709,国宾00748232,20,3
2710,国宾00773949,1,2
2711,国宾00813737,5,0
2712,T小媛媛,19,1
2713,刘斌hang,20,2
2714,白色法螺壳,3,0
2715,白色红围巾,14,0
2716,国宾00527981,20,3
2717,璀璨男神T,19,3
2718,随心人生,12,0
2719,初凉夏沫i,4,2
2720,随心荣威,20,1
2721,醒着做梦T,9,0
2722,国宾00726822,5,1
2723,微笑假的虚伪,14,2
2724,国宾00614997,16,0
2725,国宾00752990,15,0
2726,国宾00516364,7,1
2727,娱乐T哥,9,1
2728,他若有情,3,4
2729,她的体香,7,2
2730,踏雪无痕,5,0
2731,国宾00747076,5,4
2732,国宾00623395,7,2
2733,往事不能回首,20,1
2734,国宾00555966,20,1
2735,蔡LOVE畅,16,1
2736,头发胡子飘飘,18,3
2737,鹏仔帅,3,2
2738,飘萧客,1,3
2739,国宾00701028,15,1
2740,国宾00637593,10,3
2741,国宾00648510,3,3
2742,国宾00578330,6,2
2743,黄非红T,18,3
2744,国宾00629339,11,3
2745,通常三四点钟,20,3
2746,国宾00481871,7,2
2747,听取蛙声一片,12,3
2748,国宾00541148,18,2
2749,七色峰,14,1
2750,琦之槐,16,3
2751,国宾00773451,16,3
2752,国宾00602833,10,1
2753,牵着风,3,1
2754,国宾00697572,3,3
2755,野百合a,5,2
2756,国宾00591099,15,3
2757,谦之父,1,2
2758,国宾00652543,18,1
2759,国宾00718069,4,2
2760,白山帅老头,8,3
2761,国宾00555486,5,1
2762,来宾00814370,20,0
2763,国宾00720899,4,1
2764,国宾00636986,20,3
2765,白水绕西山,5,4
2766,贪得无厌,6,4
2767,汤尼公主,13,1
2768,国宾00788986,7,2
2769,天天向上小田,16,3
2770,清丶风,17,1
2771,国宾00728816,15,1
2772,国宾00636824,6,1
2773,国宾00757214,20,0
2774,清君侧i,7,0
2775,清林哥,10,0
2776,国宾00569540,7,1
2777,国宾00812126,4,4
2778,国宾00533647,18,0
2779,鸿门宴T,20,2
2780,天天好心情哦,2,2
2781,国宾00631760,8,3
2782,国宾00735567,14,3
2783,国宾00526807,7,1
2784,天生不够浪漫,10,2
2785,涛明伟二,6,2
2786,国宾00325391,2,1
2787,国宾00337682,12,0
2788,白羊座某猪,12,2
2789,来宾00805296,2,4
2790,天龙音乐传媒,12,2
2791,国宾00710841,15,0
2792,国宾00342512,16,2
2793,白山人T,13,3
2794,忒好笑了,17,0
2795,特许授权,3,4
2796,国宾00767884,5,1
2797,国宾00503636,16,0
2798,白衣卿相柳,1,4
2799,国宾00724961,18,2
2800,任逍遥,4,3
2801,国宾00655844,8,3
2802,百宝箱业务,5,3
2803,国宾00709873,1,2
2804,国宾00181400,10,1
2805,国宾00777437,7,1
2806,国宾00768679,3,2
2807,天道酬勤,12,3
2808,踢了再来不去,13,2
2809,百分百石头,5,2
2810,天道幻辰,4,3
2811,百分的点点,7,4
2812,国宾00814331,19,2
2813,国宾00418023,15,4
2814,来宾00783710,16,3
2815,等T不起,13,2
2816,天降小仙,19,0
2817,天龙赌神,12,3
2818,国宾00762403,5,2
2819,来宾00834320,7,3
2820,百加争名宋,17,1
2821,国宾00782502,4,4
2822,她含着他的它,9,4
2823,国宾00717064,12,2
2824,来宾00777118,11,2
2825,国宾00768217,18,1
2826,三人行,18,2
2827,国宾00813133,16,0
2828,国宾00792510,2,3
2829,国宾00728979,20,3
2830,百年胰岛素,18,3
2831,国宾00348904,9,0
2832,国宾00777554,6,2
2833,他微笑他捧花,4,3
2834,国宾00580056,2,2
2835,索菲亚的嘲笑,18,0
2836,国宾00517327,2,0
2837,国宾00703270,16,0
2838,来宾00794003,12,4
2839,国宾00798738,10,3
2840,国宾00624559,12,0
2841,国宾00781614,9,0
2842,天下归心,10,4
2843,国宾00817568,19,2
2844,国宾00706018,6,1
2845,国宾00602339,11,1
2846,来宾00797109,18,3
2847,柏杨坪大街,16,2
2848,国宾00663486,3,2
2849,随便吧无所谓,7,2
2850,国宾00733847,5,4
2851,国宾00776131,2,3
2852,松鼠家的兔子,16,1
2853,手术罗,13,2
2854,撕心裂肺的疼,14,2
2855,就是i干,10,2
2856,天下拳师,6,1
2857,国宾00675973,19,2
2858,国宾00634939,15,1
2859,国宾00750799,19,2
2860,国宾00814903,10,3
2861,国宾00711667,12,0
2862,摸摸你j,7,4
2863,水母要开一朵,20,2
2864,国宾00790102,19,4
2865,国宾00408969,15,3
2866,国宾00513571,15,3
2867,天意明哥,8,2
2868,天佑项予,15,1
2869,国宾00675461,9,3
2870,国宾00654002,19,3
2871,国宾00755000,5,3
2872,搬运工谨慎,11,3
2873,板寸八二开,16,2
2874,天尊小龙,5,0
2875,国宾00814018,17,4
2876,国宾00706728,11,2
2877,调戏女鬼,20,3
2878,水舀子,7,3
2879,国宾00712384,16,0
2880,国宾00598996,15,4
2881,国宾00781149,7,3
2882,铁路桥图,10,1
2883,铁塔之恋,9,1
2884,国宾00717359,11,4
2885,国宾00814978,9,3
2886,铜板多多,11,4
2887,板上的鱼肉,5,1
2888,国宾00777448,11,3
2889,败家子love,18,1
2890,国宾00591002,18,1
2891,国宾00623494,14,1
2892,傻妮妮s,14,0
2893,褪色别离,9,0
2894,国宾00533429,2,4
2895,国宾00770833,20,2
2896,湾仔杀神,18,1
2897,完美男人,5,3
2898,国宾00728801,11,1
2899,国宾00786934,20,3
2900,版本东芝键,5,3
2901,版纳捏疯子,5,1
2902,国宾00644712,10,1
2903,国宾00769111,14,1
2904,半根白将军,20,3
2905,算你狠T,16,1
2906,完美升华,17,1
2907,孙霸王,19,4
2908,国宾00640625,3,2
2909,国宾00587512,15,1
2910,纪T小颠,8,2
2911,来宾00824953,11,0
2912,国宾00739933,12,3
2913,国宾00804896,5,1
2914,来宾00777574,10,3
2915,谁是一帘幽梦,14,2
2916,国宾00640331,18,0
2917,国宾00580894,7,1
2918,国宾00764716,19,1
2919,来宾00815866,14,3
2920,来宾00783820,10,2
2921,玩家闹心,7,2
2922,太小柠,6,1
2923,国宾00704604,6,1
2924,国宾00432123,12,1
2925,柒壹安qian,19,2
2926,来宾00781135,20,2
2927,帅不需要简称,20,0
2928,国宾00643185,18,2
2929,国宾00269145,11,3
2930,国宾00567949,20,2
2931,青石子i,6,0
2932,国宾00705478,7,0
2933,唐明军,18,1
2934,国宾00732698,10,3
2935,国宾00492683,11,4
2936,安安静静R,7,2
2937,田小易,19,4
2938,国宾00742813,13,4
2939,踢两脚T,9,1
2940,输了别跑好吗,4,4
2941,国宾00813144,13,1
2942,嘿儿T肉,12,0
2943,国宾00603408,20,2
2944,噫L好污,4,4
2945,瞳小颜T,16,0
2946,国宾00748801,10,0
2947,扮中立掐架,2,2
2948,帮我吹好么,15,2
2949,国宾00474881,12,2
2950,国宾00571284,11,0
2951,国宾00473116,18,0
2952,国宾00663073,15,0
2953,亡命赌徒,20,1
2954,国宾00352809,17,1
2955,王者梦想,4,1
2956,王者天下,5,0
2957,国宾00746003,13,0
2958,国宾00763593,10,4
2959,来宾00798241,10,3
2960,佟掌柜,20,3
2961,旺财馒头,11,2
2962,国宾00646733,12,1
2963,魔怔希i,7,1
2964,国宾00813535,18,0
2965,榜眼探菊花,7,2
2966,失身的小龙女,19,2
2967,棒棒孩子气,15,2
2968,国宾00635139,17,3
2969,国宾00521109,18,2
2970,国宾00742589,20,2
2971,国宾00613136,5,4
2972,B玉麒麟,4,1
2973,威猛先生,3,4
2974,空间站A,4,1
2975,国宾00552649,8,4
2976,棒子骨敲敲,6,4
2977,国宾00789937,5,3
2978,国宾00616876,8,2
2979,为爱寻找,1,1
2980,娃娃崽,2,2
2981,瓦拉风,4,0
2982,外星人,13,1
2983,包围系杯具,13,3
2984,北方R狼族,3,3
2985,唯心可儿,16,1
2986,国宾00811724,11,2
2987,包宿多少钱,5,1
2988,国宾00586700,13,3
2989,国宾00671961,8,3
2990,国宾00791667,19,3
2991,温恭朝夕,11,1
2992,包子热腾腾,17,2
2993,包子也厉害,12,3
2994,龅牙小豆子,9,2
2995,国宾00634629,7,2
2996,来宾00761254,6,2
2997,L大呲花,10,4
2998,国宾00733306,8,1
2999,国宾00764236,12,1
3000,别捅咕我R,14,4