游戏ID,游戏分类,危险区下限(单位分),安全区下限(单位分),安全区上限(单位分),危险区上限(单位分)
id:int,gameKindName:string,dangerDownLimit:int,safeDownLimit:int,safeUpLimit:int,dangerUpLimit:int
101101,经典斗地主,-100000,-10000,10000000,1000000000
101102,经典斗地主,-1000000,-100000,10000000,1000000000
101103,经典斗地主,-10000000,-1000000,10000000,1000000000
105001,百人牛牛,-10000000,-1000000,10000000,1000000000
106001,欢乐捕鱼,-100000,-10000,10000000,1000000000
106002,欢乐捕鱼,-1000000,-100000,10000000,1000000000
106003,欢乐捕鱼,-10000000,-1000000,10000000,1000000000
141001,单挑,-10000000,-1000000,10000000,1000000000
151001,龙虎斗,-10000000,-1000000,10000000,1000000000
161001,百家乐,-10000000,-1000000,10000000,1000000000
171001,诈金花,-100000,-10000,10000000,1000000000
171002,诈金花,-1000000,-100000,10000000,1000000000
171003,诈金花,-10000000,-1000000,10000000,1000000000
181001,财神到,-10000000,-1000000,10000000,1000000000
191001,红黑大战,-100000,-10000,10000000,1000000000
200001,红包接龙,-1000000,-100000,10000000,1000000000
200002,红包接龙,-10000000,-1000000,10000000,1000000000
200003,红包接龙,-10000000,-1000000,10000000,1000000000
121001,大众麻将,-1000000,-100000,10000000,1000000000
121002,大众麻将,-10000000,-1000000,10000000,1000000000
121003,大众麻将,-10000000,-1000000,10000000,1000000000
201001,抢庄牛牛新手场,-10000000,-1000000,10000000,1000000000
201002,抢庄牛牛中级场,-10000000,-1000000,10000000,1000000000
201003,抢庄牛牛高级场,-10000000,-1000000,10000000,1000000000
203001,飞禽走兽,-10000000,-1000000,10000000,1000000000
204001,奔驰宝马,-10000000,-1000000,10000000,1000000000
