CReward,{type:string;id:int;num:int}
CBagPrize,{itemId:string;count:int;probability:int}
CRoomScoreMoney,{min:int;max:int;kick:int;takemax:int}
CRankDist,{score1:int;score2:int;rank1:int;rank2:int}
CNextEnterScore,{rate:int;basicScore:int}
CScorePromote,{scoreLine:int;rate:int}
CSignUpCond,{type:int;itemId:int;num:int}
CVirtualPeopleCnt,{begin:int;end:int;min:int;max:int}
CItemCond,{itemId:int;num:int}
CZoneShow,{zoneId:int;sortId:int}
CCombineInfo,{itemId:int;count:int}
CGiftInfo,{itemId:int;count:int;rate:int}
CRoomOpenTime,{begin:int;end:int}
CFastRoundTimes,{round:int;times:int}
CFastFirstRiseChance,{chance:int}
CFastSecondRiseChance,{rank:int;chance:int}
CAreaOrder,{zoneId:int;sortId:int}
CMatchItemReward,{id:int;num:int}
CRule,{begin:int;end:int;rate:int}
CGoalPeopleCnt,{begin:int;end:int;min:int;max:int}
CStayRoomTime,{begin:int;end:int}
CGoalTableCnt,{begin:int;end:int;min:int;max:int}
CStayTableTime,{begin:int;end:int}
CAiGoldChance,{begin:int;end:int;chance:int}
