道具id,道具名称,道具类型,道具说明,道具图标文件名,是否启用,启用平台,使用类型,合成方式序号,合并类型,有效时间,有效次数,合并分组,触发有效值方式,截止日期,组合型碎片的目标道具ID,预警数量,格子叠加上限,PC商城出售类型,PC出售价格,返奖金币数,手机商城出售类型,手机出售价格,是否提供网站后台发送,后台道具分类,道具实际价值,扩展字段
itemId:int,name:string,firstType:int,comment:string,itemIcon:string,status:int,platform:int,useType:json:array:int,combine:json:array:int,combineType:int,validTime:int,validCount:int,sumGroupId:int,triggerType:int,deadline:date,itemGroupId:int,alertNumPreFull:int,gridUp:int,PCSaleType:int,PCSalePrice:int,returnGold:int,PhoneSaleType:int,PhoneSalePrice:int,getSend:int,category:int,cost:int,extend:string
96,1元话费卡碎片,50,5个碎片合成一张1元话话费卡。,huafei_02.png,1,0,[50],[13],1,,,,,,,,999,,,,,,,,,
101,5话费合成器（30天）,60,可以合成话费卡的神器，越高级，越有利。,hechengqi_5.png,1,0,[70],[8],2,43200,,,1,,,999,1,,,,,,1,,,
102,10话费合成器（30天）,60,可以合成话费卡的神器，越高级，越有利。,hechengqi_10.png,1,0,[70],"[8,9]",2,43200,,,1,,,999,1,,,,,,1,,,
103,20话费合成器（30天）,60,可以合成话费卡的神器，越高级，越有利。,hechengqi_20.png,1,0,[70],"[8,9,10]",2,43200,,,1,,,999,1,,,,,,1,,,
104,50话费合成器（30天）,60,可以合成话费卡的神器，越高级，越有利。,hechengqi_50.png,1,0,[70],"[8,9,10,11]",2,43200,,,1,,,999,1,,,,,,1,,,
105,100话费合成器（30天）,60,可以合成话费卡的神器，越高级，越有利。,hechengqi_100.png,1,0,[70],"[8,9,10,11,12]",2,43200,,,1,,,999,1,,,,,,1,,,
501,1元话费卡,10,暂不支持流量兑换，支持兑换金币和话费充值，每天最多兑换2次。使用高级话费合成器可以合成大额话费卡，更有利于兑换。,huafei_1.png,1,0,"[10,20,990]",,1,,,,,,,999,999,,,,,,1,10,10000,
502,5元话费卡,10,暂不支持话费充值，支持兑换金币和流量兑换，每天最多兑换2次。使用高级话费合成器可以合成大额话费卡，更有利于兑换。,huafei_5.png,1,0,"[10,20,990]",,1,,,,,,,999,999,,,,,,1,,,
503,10元话费卡,10,支持流量兑换，兑换金币和话费充值，每天最多兑换2次。使用高级话费合成器可以合成大额话费卡，更有利于兑换。,huafei_10.png,1,0,"[10,20,990]",,1,,,,,,,999,999,,,,,,1,,,
504,15元话费卡,10,暂不支持流量兑换，支持兑换金币和话费充值，每天最多兑换2次。使用高级话费合成器可以合成大额话费卡，更有利于兑换。,huafei_15.png,1,0,"[10,20,990]",,1,,,,,,,999,999,,,,,,1,,,
505,20元话费卡,10,支持流量兑换，兑换金币和话费充值，每天最多兑换2次。使用高级话费合成器可以合成大额话费卡，更有利于兑换。,huafei_20.png,1,0,"[10,20,990]",,1,,,,,,,999,999,,,,,,1,,,
506,30元话费卡,10,暂不支持流量兑换，支持兑换金币和话费充值，每天最多兑换2次。使用高级话费合成器可以合成大额话费卡，更有利于兑换。,huafei_30.png,1,0,"[10,20,990]",,1,,,,,,,999,999,,,,,,1,,,
507,35元话费卡,10,暂不支持流量兑换，支持兑换金币和话费充值，每天最多兑换2次。使用高级话费合成器可以合成大额话费卡，更有利于兑换。,huafei_35.png,1,0,"[10,20,990]",,1,,,,,,,999,999,,,,,,1,,,
508,50元话费卡,10,暂不支持流量兑换，支持兑换金币和话费充值，每天最多兑换3次。使用高级话费合成器可以合成大额话费卡，更有利于兑换。,huafei_50.png,1,0,"[10,20,990]",,1,,,,,,,999,999,,,,,,1,,,
509,80元话费卡,10,暂不支持流量兑换，支持兑换金币和话费充值，每天最多兑换2次。使用高级话费合成器可以合成大额话费卡，更有利于兑换。,huafei_80.png,1,0,"[10,20,990]",,1,,,,,,,999,999,,,,,,1,,,
510,100元话费卡,10,暂不支持流量兑换，支持兑换金币和话费充值，每天最多兑换2次。,huafei_100.png,1,0,"[10,20,990]",,1,,,,,,,999,999,,,,,,1,,,
511,150元话费卡,10,暂不支持流量兑换，支持兑换金币和话费充值，每天最多兑换2次。,huafei_150.png,1,0,"[10,20,990]",,1,,,,,,,999,999,,,,,,1,,,
512,200元话费卡,10,暂不支持流量兑换，支持兑换金币和话费充值，每天最多兑换2次。,huafei_200.png,1,0,"[10,20,990]",,1,,,,,,,999,999,,,,,,1,,,
513,250元话费卡,10,暂不支持流量兑换，支持兑换金币和话费充值，每天最多兑换4次。使用高级话费合成器可以合成大额话费卡，更有利于兑换。,huafei_250.png,1,0,"[10,20,990]",,1,,,,,,,999,999,,,,,,1,,,
501,2元话费卡,10,暂不支持流量兑换，支持兑换金币和话费充值，每天最多兑换2次。使用高级话费合成器可以合成大额话费卡，更有利于兑换。,huafei_2.png,1,0,"[10,20,990]",,1,,,,,,,999,999,,,,,,1,10,10000,
2001,话费追击炮（30天）,40,捕捉话费的最佳炮选。,sshjp.png,1,0,,,3,43200,,1,1,,,999,1,2,30,300000,1,75000,1,,,
2002,话费追击炮（7天）,40,捕捉话费的最佳炮选。,sshjp.png,1,0,,,3,10080,,1,1,,,999,1,2,10,100000,1,25000,1,,,
2003,话费追击炮（3天）,40,捕捉话费的最佳炮选。,sshjp.png,1,0,,,3,4320,,1,1,,,999,1,2,5,50000,,,1,,,
2004,话费追击炮（1天）,40,捕捉话费的最佳炮选,sshjp.png,1,0,,,3,1440,,1,1,,,999,1,,,,1,10000,1,,,
2005,炮台（手动激活）,40,测试道具,sshjp.png,1,0,[110],,1,43200,,,2,,,999,999,,,,,,1,,,
2006,测试道具1,10,测试道具1,huafei_1.png,1,0,"[30,990]",,1,,,,,,,999,999,1,100000,,,,1,,,
2007,测试道具2,10,测试道具2,huafei_1.png,1,0,"[10,20,30,990]",,1,,,,,,,999,999,,,,,,1,,,
2008,测试道具3,10,测试道具3,huafei_1.png,1,0,[990],,1,,,,,,,999,999,,,,,,1,,,
2009,测试道具4,20,测试道具4,huafei_1.png,1,0,[60],,1,,,,,,,999,999,,,,,,1,,,
2010,测试道具5,20,测试道具5,huafei_1.png,1,0,[60],,1,,,,,,,999,999,,,,,,1,,,
2011,测试道具6,30,测试道具6,huafei_1.png,1,0,[80],,1,,,,,,,999,999,,,,,,1,,,
2012,测试道具7,30,测试道具7,huafei_1.png,1,0,[80],,1,,,,,,,999,999,,,,,,1,,,
2014,测试道具9,50,测试道具9,huafei_1.png,1,0,[50],,1,,,,,,,999,999,,,,,,1,,,
2015,测试道具10,50,测试道具10,huafei_1.png,1,0,[50],,1,,,,,,,999,999,,,,,,1,,,
4013,hello kitty软糖碎片,50,hello kitty软糖碎片，集齐9种碎片合成可获得兑换券,Fudge01.png,1,0,[50],[2],1,,,,,,5007,999,999,,,,,,1,,,
4014,hello kitty软糖碎片,50,hello kitty软糖碎片，集齐9种碎片合成可获得兑换券,Fudge02.png,1,0,[50],[2],1,,,,,,5007,999,999,,,,,,1,,,
4015,hello kitty软糖碎片,50,hello kitty软糖碎片，集齐9种碎片合成可获得兑换券,Fudge03.png,1,0,[50],[2],1,,,,,,5007,999,999,,,,,,1,,,
4016,hello kitty软糖碎片,50,hello kitty软糖碎片，集齐9种碎片合成可获得兑换券,Fudge04.png,1,0,[50],[2],1,,,,,,5007,999,999,,,,,,1,,,
4017,hello kitty软糖碎片,50,hello kitty软糖碎片，集齐9种碎片合成可获得兑换券,Fudge05.png,1,0,[50],[2],1,,,,,,5007,999,999,,,,,,1,,,
4018,hello kitty软糖碎片,50,hello kitty软糖碎片，集齐9种碎片合成可获得兑换券,Fudge06.png,1,0,[50],[2],1,,,,,,5007,999,999,,,,,,1,,,
4019,hello kitty软糖碎片,50,hello kitty软糖碎片，集齐9种碎片合成可获得兑换券,Fudge07.png,1,0,[50],[2],1,,,,,,5007,999,999,,,,,,1,,,
4020,hello kitty软糖碎片,50,hello kitty软糖碎片，集齐9种碎片合成可获得兑换券,Fudge08.png,1,0,[50],[2],1,,,,,,5007,999,999,,,,,,1,,,
4021,hello kitty软糖碎片,50,hello kitty软糖碎片，集齐9种碎片合成可获得兑换券,Fudge09.png,1,0,[50],[2],1,,,,,,5007,999,999,,,,,,1,,,
5007,hello kitty软糖兑换券,10,hello kitty软糖兑换券,Fudge.png,1,0,[30],,1,,,,,,,999,999,,,,,,1,,,
5012,比赛测试道具1,10,比赛测试道具1,huafei_1.png,1,0,"[10,20,990]",,1,,,,,,,999,999,,,,,,1,,,
5015,比赛测试道具2,10,比赛测试道具2,huafei_1.png,1,0,"[10,20,990]",,1,,,,,,,999,999,,,,,,1,,,
5001,比赛测试道具3,10,比赛测试道具3,huafei_1.png,1,0,"[10,20,990]",,1,,,,,,,999,999,,,,,,1,,,
3999,龙珠,10,赠送道具，用于兑换钻石,db_jinbibao.png,1,0,,,1,,,,,,,,999,,,,,,1,,,
3998,冰冻弹,10,可使用冰冻技能，对场上的鱼造成全屏冰冻的效果，持续7秒,fish_icon_frozen.png,1,0,,,1,,,,,,,,999,,,,,,1,,,
3997,瞄准镜,10,可使用锁定技能，自动对选中的鱼发射炮弹，持续12秒,fish_icon_aim.png,1,0,,,1,,,,,,,,999,,,,,,1,,,
3996,狂暴,10,可使用狂暴技能，发射炮弹速度增加，并可造成暴击效果，持续10秒,fish_icon_wild.png,1,0,,,1,,,,,,,,999,,,,,,1,,,
3101,核能炮,40,最普通的捕鱼炮，虽然威力小，但是消耗低，乱开炮也不会倾家荡产,fish_icon_energy.png,1,0,,,1,,,,,,,,1,,,,,,1,,,
3102,双管核能炮(10倍),40,单纯依靠增加量来提升火力，效果还是显著的，只是会达到瓶颈,fish_icon_yonah.png,1,0,,,3,4320,,3102,,,,,1,,,,,,1,,,
3103,双管核能炮(10倍),40,单纯依靠增加量来提升火力，效果还是显著的，只是会达到瓶颈,fish_icon_yonah.png,1,0,,,3,10080,,3102,,,,,1,,,,,,1,,,
3104,双管核能炮(10倍),40,单纯依靠增加量来提升火力，效果还是显著的，只是会达到瓶颈,fish_icon_yonah.png,1,0,,,3,43200,,3102,,,,,1,,,,,,1,,,
3105,风神炮(40倍),40,借由风神之力发射的炮击，在命中鱼后能形成强大的吸力,fish_icon_aeolus.png,1,0,,,3,4320,,3105,,,,,1,,,,,,1,,,
3106,风神炮(40倍),40,借由风神之力发射的炮击，在命中鱼后能形成强大的吸力,fish_icon_aeolus.png,1,0,,,3,10080,,3105,,,,,1,,,,,,1,,,
3107,风神炮(40倍),40,借由风神之力发射的炮击，在命中鱼后能形成强大的吸力,fish_icon_aeolus.png,1,0,,,3,43200,,3105,,,,,1,,,,,,1,,,
3108,雷神炮(70倍),40,借由雷神之力发射的炮击，通过麻痹鱼使其丧失抵抗能力,fish_icon_thor.png,1,0,,,3,4320,,3108,,,,,1,,,,,,1,,,
3109,雷神炮(70倍),40,借由雷神之力发射的炮击，通过麻痹鱼使其丧失抵抗能力,fish_icon_thor.png,1,0,,,3,10080,,3108,,,,,1,,,,,,1,,,
3110,雷神炮(70倍),40,借由雷神之力发射的炮击，通过麻痹鱼使其丧失抵抗能力,fish_icon_thor.png,1,0,,,3,43200,,3108,,,,,1,,,,,,1,,,
3111,魅影极光(100倍),40,优化结构改良的风神炮，火力更加集中，威力大大增强,fish_icon_phantom.png,1,0,,,3,4320,,3111,,,,,1,,,,,,1,,,
3112,魅影极光(100倍),40,优化结构改良的风神炮，火力更加集中，威力大大增强,fish_icon_phantom.png,1,0,,,3,10080,,3111,,,,,1,,,,,,1,,,
3113,魅影极光(100倍),40,优化结构改良的风神炮，火力更加集中，威力大大增强,fish_icon_phantom.png,1,0,,,3,43200,,3111,,,,,1,,,,,,1,,,
3114,烈焰金刚(500倍),40,染指禁忌的技术，在水中反用火焰之力，破坏力超群,fish_icon_vajra.png,1,0,,,3,4320,,3114,,,,,1,,,,,,1,,,
3115,烈焰金刚(500倍),40,染指禁忌的技术，在水中反用火焰之力，破坏力超群,fish_icon_vajra.png,1,0,,,3,10080,,3114,,,,,1,,,,,,1,,,
3116,烈焰金刚(500倍),40,染指禁忌的技术，在水中反用火焰之力，破坏力超群,fish_icon_vajra.png,1,0,,,3,43200,,3114,,,,,1,,,,,,1,,,
3117,财神炮(1000倍),40,从财神手里借来的炮，通过增加财运来增加捕鱼成功率,fish_icon_mammon.png,1,0,,,3,4320,,3117,,,,,1,,,,,,1,,,
3118,财神炮(1000倍),40,从财神手里借来的炮，通过增加财运来增加捕鱼成功率,fish_icon_mammon.png,1,0,,,3,10080,,3117,,,,,1,,,,,,1,,,
3119,财神炮(1000倍),40,从财神手里借来的炮，通过增加财运来增加捕鱼成功率,fish_icon_mammon.png,1,0,,,3,43200,,3117,,,,,1,,,,,,1,,,
3120,天使之怒(5000倍),40,造炮大师登峰造极之作，每一炮都带着来自天使的洪荒之力,fish_icon_angell.png,1,0,,,3,4320,,3120,,,,,1,,,,,,1,,,
3121,天使之怒(5000倍),40,造炮大师登峰造极之作，每一炮都带着来自天使的洪荒之力,fish_icon_angell.png,1,0,,,3,10080,,3120,,,,,1,,,,,,1,,,
3122,天使之怒(5000倍),40,造炮大师登峰造极之作，每一炮都带着来自天使的洪荒之力,fish_icon_angell.png,1,0,,,3,43200,,3120,,,,,1,,,,,,1,,,
3123,恶魔之炎(10000倍),40,为求得毁天灭地的威力，不惜同恶魔契约，借来地狱的火焰,fish_icon_evil.png,1,0,,,3,4320,,3123,,,,,1,,,,,,1,,,
3124,恶魔之炎(10000倍),40,为求得毁天灭地的威力，不惜同恶魔契约，借来地狱的火焰,fish_icon_evil.png,1,0,,,3,10080,,3123,,,,,1,,,,,,1,,,
3125,恶魔之炎(10000倍),40,为求得毁天灭地的威力，不惜同恶魔契约，借来地狱的火焰,fish_icon_evil.png,1,0,,,3,43200,,3123,,,,,1,,,,,,1,,,
207,改名卡,60,改名卡,namechange.png,1,0,[90],,1,,,,,,,999,999,,,,,,1,,,
9999,房卡,60,房卡,paiyoufangka.png,1,0,,,1,,,,,,,9999,9999,,,,,,,,,
10000,金币,70,游戏流通货币,public_img_jinbi_03.png,,,,,,,,,,,,,,,,,,,,,,
10001,钻石,70,游戏流通货币,public_img_diamond.png,,,,,,,,,,,,,,,,,,,,,,
10002,A币,70,游戏流通货币（仅在PC端商城使用）,lihe3.png,,,,,,,,,,,,,,,,,,,,,,
